{"type":"FeatureCollection","features":[{"type": "Feature",
"properties":{
"time": 1473510867472,
"guid": "1d124e265b1d49819e91bfc8f4a6ec64.1c",
"title": "Munich City 1 / 24",
"description": "Mission series dedicated to all people who visit, live or work in Munich. If you are short in time then do only 6, 12 or 18 parts.Further informations can be found in portal texts of first mission",
"author":"eeepee",
"authorTeam": "R",
"ratingE6": 871429,
"medianCompletionTimeMs": 1276270,
"numUniqueCompletedPlayers": 69,
"typeNumMission": 1,
"image": "https://lh3.googleusercontent.com/uYkiALwnAV3W_xt-jnWz9EcCWGYnSzoCzVfNxx7OcNUwcpG6q9p73DL0HYYAx4JTt2QYCz-T3jbuZhhRGfA",
"portalTitle": ["Rathaus","Sanct Onuphrius","Old Town Hall, Munich","Spielzeugmuseum München","Ludwig Beck","Nackte Mode bei Beck","Ehemalige Stadtschreiberei","Alter Hof","Alter Hof","Brunnen im Alten Hof","Ludwig der Bayer","Hofpfisterei Alte Pfistermühle","Römerschädl","Kopf Mit Grausliche Vorderzähnt","Platzl","Hofbräuhaus","Hofbräuhaus am Platzl","Wandbild Platz Hotel","Hof","Public Passage Alter Hof"],
"portalTypeNum": [1,1,2,1,1,1,1,2,1,1,1,1,1,1,1,1,2,1,1,2],
"portalObjectiveNum": [1,1,7,1,1,1,1,7,1,1,1,1,1,1,1,1,7,1,1,7],
"id": 48
},
"geometry": {
"type": "LineString",
"coordinates": [
[
11.57594,48.137372
]
,[
11.576478,48.136794
]
,[
11.576798,48.136797
]
,[
11.576817,48.137177
]
,[
11.577179,48.137187
]
,[
11.577559,48.137588
]
,[
11.577865,48.138225
]
,[
11.578257,48.138244
]
,[
11.578346,48.138582
]
,[
11.579417,48.138559
]
,[
11.579754,48.138298
]
,[
11.579977,48.138147
]
,[
11.580094,48.137977
]
,[
11.579786,48.137723
]
,[
11.57874,48.137889
]
,[
11.578955,48.138152
]
]
}
},

{"type": "Feature",
"properties":{
"time": 1473510883729,
"guid": "32cec302a4954a27b9d95bac73abc654.1c",
"title": "Munich City 2 / 24",
"description": "Mission series dedicated to all people who visit, live or work in Munich. If you are short in time then do only 6, 12 or 18 parts. start of 1st mission: Marienplatz",
"author":"eeepee",
"authorTeam": "R",
"ratingE6": 923077,
"medianCompletionTimeMs": 1663075,
"numUniqueCompletedPlayers": 67,
"typeNumMission": 1,
"image": "https://lh3.googleusercontent.com/Sw-i0J_fJbouBk4XQYVr-ZsEI3ceycZ6kcXXqqlXq83nxCkmbyqdOBShvpjw18XqYoDldKARWP0l3Vy2S0wmGw",
"portalTitle": ["Zerwirkgewölbe","Münchner Zeitkapsel 2013 - 2113","Kunstarkaden","Figuren über Eingang","09.11.1938","Two Lions","Münchner Kindl an der Sparkasse","Weißes Bräuhaus","Brunnen","Figur Im Tal","Effective Marketing","Torbräu","'Lueg ins Land' Watchtower","Isartor","Isartor","Isartor","Fundamente Zwingermauer 1430-1472","Bayer. Oktoberfest u. Brauereimuseum","Reich verzierte Eingangstür","Madonna Im Erker"],
"portalTypeNum": [1,1,1,1,1,1,1,1,1,1,1,1,1,1,2,1,1,1,1,1],
"portalObjectiveNum": [1,1,1,1,1,1,1,1,1,1,1,1,1,1,7,1,1,1,1,1],
"id": 48
},
"geometry": {
"type": "LineString",
"coordinates": [
[
11.578311,48.137576
]
,[
11.577754,48.137284
]
,[
11.577547,48.137126
]
,[
11.577716,48.136904
]
,[
11.577323,48.136922
]
,[
11.577524,48.136749
]
,[
11.578175,48.136324
]
,[
11.578512,48.136378
]
,[
11.579062,48.136142
]
,[
11.579361,48.136166
]
,[
11.579704,48.13603
]
,[
11.581482,48.135502
]
,[
11.582388,48.135672
]
,[
11.581609,48.135257
]
,[
11.581929,48.134991
]
,[
11.580923,48.134895
]
,[
11.580309,48.13527
]
,[
11.579187,48.134998
]
,[
11.577288,48.135076
]
]
}
},

{"type": "Feature",
"properties":{
"time": 1473510893703,
"guid": "5ac11fca3fc44b4284de7bc1ee32d8ad.1c",
"title": "Munich City 3 / 24",
"description": "Mission series dedicated to all people who visit, live or work in Munich. If you are short in time then do only 6, 12 or 18 parts. start of 1st mission: Marienplatz",
"author":"eeepee",
"authorTeam": "R",
"ratingE6": 927536,
"medianCompletionTimeMs": 1476669,
"numUniqueCompletedPlayers": 70,
"typeNumMission": 1,
"image": "https://lh3.googleusercontent.com/4DyyWXcqgmJYqfqraPZxgOzkXPiwAVuQUclks1YbZ8g9qqRtx30Z8AtOl1HKu_riKFJ2kugrzpUgFNihdnUw",
"portalTitle": ["Marienstatue","Inside the Church of the Holy ","Elise-Aulinger-Brunnen","Roiderjackl Statue","Münchener Schauspielerin Liesl Karlstadt Brunnen","Sculpture of Ida Schumacher","Maibaum Viktualienmarkt","Karl Valentin Sculpture","Langweiliger Brunnen","Der Alte Peter vom Viktualienm","Grabsteinwand","St. Peter's Church, München","Alter Peter Munich","Rindermarktbrunnen","Löwenturm","Münchner Stadtmuseum","hmmm - feine Schmalznudeln","Milka-kuh","Luftschutzbunker An St.Jakobs Platz","Betendes Mädchen "],
"portalTypeNum": [1,1,1,1,1,1,1,1,1,1,1,2,1,2,1,1,1,1,1,1],
"portalObjectiveNum": [1,1,1,1,1,1,1,1,1,1,1,7,1,7,1,1,1,1,1,1],
"id": 48
},
"geometry": {
"type": "LineString",
"coordinates": [
[
11.577224,48.135256
]
,[
11.577331,48.13611
]
,[
11.576848,48.136013
]
,[
11.576663,48.135706
]
,[
11.576448,48.135165
]
,[
11.576514,48.134955
]
,[
11.576076,48.135108
]
,[
11.575528,48.135009
]
,[
11.576012,48.135505
]
,[
11.5765,48.136291
]
,[
11.575942,48.136302
]
,[
11.57543,48.136539
]
,[
11.574049,48.135874
]
,[
11.573381,48.135641
]
,[
11.574632,48.134885
]
,[
11.574472,48.134141
]
,[
11.573633,48.133832
]
,[
11.573031,48.133766
]
]
}
},

{"type": "Feature",
"properties":{
"time": 1473510905337,
"guid": "d8c95ed5ac4d45d9ba1c726fd2545eb2.1c",
"title": "Munich City 4 / 24",
"description": "Mission series dedicated to all people who visit, live or work in Munich. If you are short in time then do only 6, 12 or 18 parts. start of 1st mission: Marienplatz",
"author":"eeepee",
"authorTeam": "R",
"ratingE6": 819672,
"medianCompletionTimeMs": 1932736,
"numUniqueCompletedPlayers": 64,
"typeNumMission": 1,
"image": "https://lh3.googleusercontent.com/2tyjhU7TkMm0LN-6rcbI6BhlWeQ_1DLJQxZXVN1HPQ6tlRi6KUsyOvJHIAD7KC7Kd08BKfbiPVx7zDadxqg",
"portalTitle": ["Synagoge Ohel Jakob","Synagoge","Stunden Säule","Munich Stadtmuseum","Münchner Stadtmuseum","Ignaz Günther Haus","Jewish Museum Munich","Neue Synagoge München - Gang d","Christophorus with Child","Kind mit Kirche","Marionettentheater","Statue der Globalen Wasserverschwendung","Türe des Münchner Feuerwehrmuseums","Alte Katholische Kirche","Mouse in the House","Ornamentik","Matthäuskirche","Fountain","Filmtheater München","AIDS Denkmal "],
"portalTypeNum": [1,1,1,2,1,1,2,1,1,1,1,1,1,1,1,1,1,1,1,1],
"portalObjectiveNum": [1,1,1,7,1,1,7,1,1,1,1,1,1,1,1,1,1,1,1,1],
"id": 48
},
"geometry": {
"type": "LineString",
"coordinates": [
[
11.572745,48.134232
]
,[
11.572833,48.134614
]
,[
11.572994,48.135042
]
,[
11.572372,48.13496
]
,[
11.571964,48.134884
]
,[
11.572484,48.134376
]
,[
11.573302,48.133452
]
,[
11.572697,48.133112
]
,[
11.570334,48.132022
]
,[
11.569725,48.13229
]
,[
11.56968,48.132527
]
,[
11.568965,48.132362
]
,[
11.567355,48.131629
]
,[
11.567267,48.132393
]
,[
11.565337,48.133072
]
,[
11.565863,48.133503
]
,[
11.567046,48.133995
]
,[
11.56748,48.133846
]
]
}
},

{"type": "Feature",
"properties":{
"time": 1473510918676,
"guid": "804c5c00c3f246f597dcfd3015e18280.1c",
"title": "Munich City 5 / 24",
"description": "Mission series dedicated to all people who visit, live or work in Munich. If you are short in time then do only 6, 12 or 18 parts. start of 1st mission: Marienplatz",
"author":"eeepee",
"authorTeam": "R",
"ratingE6": 911765,
"medianCompletionTimeMs": 1300581,
"numUniqueCompletedPlayers": 69,
"typeNumMission": 1,
"image": "https://lh3.googleusercontent.com/BrIPC97Ps13VqdDxAES2MJYFN_mpcPnA1YpSq7tN_TT1KWiyGaTALA6fDjwEdmKmRpizlkMlfeUkrweQ-V0O",
"portalTitle": ["Kreuz am Sendlinger Tor ","Sendlinger Tor","Auffliegende Vögel","Altbauerker","Balkon Um Zum Volk Zu Sprechen","Red Man","Building Corner Sculpture","Asamkirche","Heiliger im Hof","Asamkirche","Frau mit Schwert und Waage","Runder Brunnen ","Balkonskultpuren","Glockenspiel ","Eckbüste","Zum Rappeneck","Spanisches Fruchthaus ","Denkmal Siggi Sommer","Seilbahn Mural","Landeshauptstadt","Münchner Kindl"],
"portalTypeNum": [1,1,1,1,1,1,1,2,1,1,1,1,1,1,1,1,1,1,1,1,1],
"portalObjectiveNum": [1,1,1,1,1,1,1,7,1,1,1,1,1,1,1,1,1,1,1,1,1],
"id": 48
},
"geometry": {
"type": "LineString",
"coordinates": [
[
11.567855,48.133866
]
,[
11.567604,48.134108
]
,[
11.567254,48.134534
]
,[
11.568322,48.134226
]
,[
11.568423,48.134483
]
,[
11.568977,48.134606
]
,[
11.56952,48.134881
]
,[
11.569317,48.135121
]
,[
11.569675,48.135091
]
,[
11.569968,48.135028
]
,[
11.570174,48.135294
]
,[
11.570933,48.135575
]
,[
11.571305,48.135571
]
,[
11.571661,48.135744
]
,[
11.572578,48.136304
]
,[
11.573492,48.136153
]
,[
11.573731,48.136521
]
,[
11.574297,48.136666
]
,[
11.574592,48.137198
]
,[
11.57487,48.137124
]
]
}
},

{"type": "Feature",
"properties":{
"time": 1473510938988,
"guid": "db9b932310a14605a7b1bc70ea072a5d.1c",
"title": "Munich City 6 / 24",
"description": "Mission series dedicated to all people who visit, live or work in Munich. If you are short in time then do only 6, 12 or 18 parts. start of 1st mission: Marienplatz",
"author":"eeepee",
"authorTeam": "R",
"ratingE6": 925373,
"medianCompletionTimeMs": 964408,
"numUniqueCompletedPlayers": 69,
"typeNumMission": 1,
"image": "https://lh3.googleusercontent.com/f12W6UDmCBj3ZsNWSacm_dnzriwiU6zyOcsLvwacCyKOv0f1BLDCB59pNucyIlERpCPDJB-AahS8RU6sYU2XOw",
"portalTitle": ["Muschelfrau","Der Taubenmann","Der Hirte","Wildschweindenkmal","Deutsches Jagd- und Fischereimuseum","St. Michael's Church","The Church of Saint Michael: Sankt Michael","Alte Akademie","Landesamt","Richard Strauss Brunnen","Augustiner-Bräu Ausschank","Gottfried Keller","Bürgersaal","Oberpollinger","Maria","Brunnen vereist","Neuhausertor","Hofnarr Prangerl","Karlsplatz ","Karlsplatz Stachus"],
"portalTypeNum": [1,1,1,1,2,1,2,1,1,1,1,1,1,1,1,1,1,1,1,1],
"portalObjectiveNum": [1,1,1,1,7,1,7,1,1,1,1,1,1,1,1,1,1,1,1,1],
"id": 48
},
"geometry": {
"type": "LineString",
"coordinates": [
[
11.574141,48.137475
]
,[
11.573369,48.137513
]
,[
11.571798,48.138228
]
,[
11.571463,48.138251
]
,[
11.570281,48.138479
]
,[
11.569775,48.138388
]
,[
11.569871,48.138661
]
,[
11.569579,48.138661
]
,[
11.568919,48.138648
]
,[
11.568108,48.138569
]
,[
11.568173,48.138819
]
,[
11.56735,48.138898
]
,[
11.567221,48.139173
]
,[
11.567037,48.138972
]
,[
11.566778,48.138914
]
,[
11.566595,48.139155
]
,[
11.566291,48.139484
]
,[
11.566211,48.139281
]
]
}
},

{"type": "Feature",
"properties":{
"time": 1473510960849,
"guid": "b8ea9f1c876443abafa969ce40e99371.1c",
"title": "Munich City 7 / 24",
"description": "Mission series dedicated to all people who visit, live or work in Munich. If you are short in time then do only 6, 12 or 18 parts.start of 1st mission: Marienplatz",
"author":"eeepee",
"authorTeam": "R",
"ratingE6": 861111,
"medianCompletionTimeMs": 1481969,
"numUniqueCompletedPlayers": 36,
"typeNumMission": 1,
"image": "https://lh3.googleusercontent.com/OXp8higCjtfVjXPPYupKjGSysF09eq0T0z-aPSIzyparZIpM7PorubrN5Ljuuuad17xs-I1nYx1_I8mi3Xi3",
"portalTitle": ["Stachus Fountain","Bat","Künstler Haus bei Nacht","Schlafendes Eichhörnchen","Steinschwein","Max-Turm","Ornament An Hauswand","Mosaik am Amtsgericht München","Hl. Korbinian","Der Turm","Jakob Fugger um 1500","Madonna","Kurt Eisner Denkmal","Archbishop's Palace in Munich","Palais Holnstein","Griechische Kirche Zum Erlöser","Salvatorkirche","Reste des Jungfernturms von 1493","Bayerisches Staatsministerium Kultus Wissenschaft Und Kunst","Skulptur Amiraplatz"],
"portalTypeNum": [1,1,1,1,1,1,1,1,1,1,1,1,1,1,2,1,1,1,1,1],
"portalObjectiveNum": [1,1,1,1,1,1,1,1,1,1,1,1,1,1,7,1,1,1,1,1],
"id": 48
},
"geometry": {
"type": "LineString",
"coordinates": [
[
11.565815,48.139141
]
,[
11.566635,48.139917
]
,[
11.567852,48.140312
]
,[
11.56854,48.140609
]
,[
11.569222,48.140765
]
,[
11.569503,48.140681
]
,[
11.568817,48.140173
]
,[
11.569183,48.140043
]
,[
11.570441,48.139869
]
,[
11.571026,48.139624
]
,[
11.571944,48.139465
]
,[
11.572432,48.139466
]
,[
11.573965,48.140259
]
,[
11.574542,48.140662
]
,[
11.574892,48.14142
]
,[
11.574583,48.14168
]
,[
11.574318,48.142161
]
,[
11.575426,48.142119
]
,[
11.575476,48.142376
]
]
}
},

{"type": "Feature",
"properties":{
"time": 1473510980445,
"guid": "332ed1d28d164588995273ba4e060641.1c",
"title": "Munich City 8 / 24",
"description": "Mission series dedicated to all people who visit, live or work in Munich. If you are short in time then do only 6, 12 or 18 parts. start of 1st mission: Marienplatz",
"author":"eeepee",
"authorTeam": "R",
"ratingE6": 806452,
"medianCompletionTimeMs": 1415242,
"numUniqueCompletedPlayers": 32,
"typeNumMission": 1,
"image": "https://lh3.googleusercontent.com/4fIYv_3jOSxHCnRZ9awBkSj9Da2zm-a7y9N8s61KJ9zJbjQAcWQr7XtTiiKOMF72J58Qzy-VRj5OCfgkeRk4",
"portalTitle": ["Café Luitpold","Prinzregent Luitpold ","Platz der Opfer des Nationalsozialismus","Fackel am Platz der Opfer","Almeida-Palais 1823  ","Brauerbrunnen","Blue Lion","Glasspringbrunnen bei der Bayern LB","Lion BLB","Palais Dürckheim","Estàtua de Baviera","Christie's München","Türkentor","Architekturbuchhandlung","Museum Brandhorst","Maria Mit Engeln","Gustav Landauer ","Fremdspracheninstitut","Internationales Begegnungszentrum","Maria und Jesus"],
"portalTypeNum": [1,1,1,1,1,1,1,1,1,1,1,1,1,1,2,1,1,1,1,1],
"portalObjectiveNum": [1,1,1,1,1,1,1,1,1,1,1,1,1,1,7,1,1,1,1,1],
"id": 48
},
"geometry": {
"type": "LineString",
"coordinates": [
[
11.574873,48.142998
]
,[
11.574602,48.143068
]
,[
11.573971,48.142877
]
,[
11.573927,48.143113
]
,[
11.573987,48.143438
]
,[
11.573513,48.143769
]
,[
11.573013,48.144073
]
,[
11.573521,48.144876
]
,[
11.574025,48.145537
]
,[
11.57318,48.145844
]
,[
11.573508,48.146244
]
,[
11.573747,48.1466
]
,[
11.573817,48.147161
]
,[
11.574374,48.147633
]
,[
11.575223,48.148122
]
,[
11.576796,48.148033
]
,[
11.577172,48.148197
]
,[
11.577513,48.148639
]
,[
11.577861,48.149566
]
]
}
},

{"type": "Feature",
"properties":{
"time": 1473510995203,
"guid": "c766721dfac44145abe7e5bf17b7c60d.1c",
"title": "Munich City 9 / 24",
"description": "Mission series dedicated to all people who visit, live or work in Munich. If you are short in time then do only 6, 12 or 18 parts.start of 1st mission: Marienplatz",
"author":"eeepee",
"authorTeam": "R",
"ratingE6": 709677,
"medianCompletionTimeMs": 2414568,
"numUniqueCompletedPlayers": 33,
"typeNumMission": 1,
"image": "https://lh3.googleusercontent.com/erdn1S5oA3anhqrGb8stMpAmoM46joynUFHQQrks3pwZaarzgKzsxAqzHVjqAAxXlgqEyfHGF3FKjC_c3kIy",
"portalTitle": ["Atzinger","Maria with child","Kunstvolle Fassade Schellingstraße","Hero Mural","Graubart","Georg-Elser-Platz","Putto","ARRI München","Academy of Fine Arts","Black Saturn","Academy of Fine Arts","Siegestor und Quadriga","Siegestor","Grantiger Deife","Sophie Scholl Flugblätter","Lungo Ludwigstrasse","Wunden der Erinnerung ","Wohnhaus der Kaiserin Sissi","Hans Carossa Gedenktafel"],
"portalTypeNum": [1,1,1,1,1,1,1,1,2,1,1,1,2,1,1,1,1,1,1],
"portalObjectiveNum": [1,1,1,1,1,1,1,1,7,1,1,1,7,1,1,1,1,1,1],
"id": 48
},
"geometry": {
"type": "LineString",
"coordinates": [
[
11.578224,48.149363
]
,[
11.57791,48.149802
]
,[
11.576923,48.15007
]
,[
11.576165,48.150365
]
,[
11.57616,48.150702
]
,[
11.576793,48.150982
]
,[
11.577271,48.152
]
,[
11.577825,48.153246
]
,[
11.57904,48.153037
]
,[
11.580211,48.152954
]
,[
11.582108,48.152297
]
,[
11.581329,48.151474
]
,[
11.580557,48.150777
]
,[
11.580813,48.149968
]
,[
11.580304,48.149114
]
,[
11.578338,48.147242
]
,[
11.574748,48.148498
]
]
}
},

{"type": "Feature",
"properties":{
"time": 1473510998225,
"guid": "4484fbc012224ab783cf0df99899b337.1c",
"title": "Munich City 10 / 24",
"description": "Mission series dedicated to all people who visit, live or work in Munich. If you are short in time then do only 6, 12 or 18 parts.start of 1st mission: Marienplatz",
"author":"eeepee",
"authorTeam": "R",
"ratingE6": 714286,
"medianCompletionTimeMs": 1845996,
"numUniqueCompletedPlayers": 35,
"typeNumMission": 1,
"image": "https://lh3.googleusercontent.com/KezCH5Y9EF6Gd5XBoK2kVr9U1SgnldXtPRyu_NNKOmEvCw61xJdP-Cr9dKBWj7PlDWveqPRTaM0Xarb6hBPs",
"portalTitle": ["Museum Brandhorst","Kunstareal","Kontinente","Aglaia","Miracolo","Neue Pinakothek","Henry Moore","Steinlöwen ","Steinflamme","Eduardo Paolozzi Statue","Rossebändiger","Eingang zur Kunst ","Alte Pinakothek","Pinakothek der Moderne","Museum Reich der Kristalle aka Mathebau","White Wall Car","Pinakothek der Moderne","Walk of Fame","Armless Man","SMAEK"],
"portalTypeNum": [1,2,1,1,1,2,1,1,1,1,1,1,1,1,1,1,1,1,1,1],
"portalObjectiveNum": [1,7,1,1,1,7,1,1,1,1,1,1,1,1,1,1,1,1,1,1],
"id": 48
},
"geometry": {
"type": "LineString",
"coordinates": [
[
11.574214,48.148212
]
,[
11.571759,48.149176
]
,[
11.571456,48.149409
]
,[
11.570948,48.149591
]
,[
11.570128,48.149716
]
,[
11.569028,48.149682
]
,[
11.568114,48.147872
]
,[
11.568669,48.147983
]
,[
11.568799,48.148373
]
,[
11.570061,48.148437
]
,[
11.570969,48.148001
]
,[
11.571462,48.147916
]
,[
11.572448,48.147987
]
,[
11.572078,48.147515
]
,[
11.572595,48.146704
]
,[
11.569802,48.146882
]
,[
11.568797,48.147194
]
,[
11.568459,48.147192
]
]
}
},

{"type": "Feature",
"properties":{
"time": 1473511013408,
"guid": "5e8f97d595b846e58c8db652bb1cb25c.1c",
"title": "Munich City 11 / 24",
"description": "Mission series dedicated to all people who visit, live or work in Munich. If you are short in time then do only 6, 12 or 18 parts. start of 1st mission: Marienplatz",
"author":"eeepee",
"authorTeam": "R",
"ratingE6": 696970,
"medianCompletionTimeMs": 1732201,
"numUniqueCompletedPlayers": 34,
"typeNumMission": 1,
"image": "https://lh3.googleusercontent.com/a1NxFXSZMc3G_ATpeBH7qk5lGs3T55LGoYetQR-J1YTCx-mdVMoUerU7nBkTdABCZcr_eIv0_JG01LxbbzA",
"portalTitle": ["Mensa Arcisstraße","Musikhochschule München","Mensch","Alle Hände Nuch Drann ?","Roemer","Little Delphi","Glyptothek","Lenbachhaus","Städtische Galerie im Lenbachhaus","Lenbachhaus museum  by Foster + Partners","3 Friends Playing","Detail: Lion","Pavillons Kandinsky","Propyläen","Propyläen","Königsplatz","Antikensammlung","Colourfull Art @ Königsplatz","Institut für Ägyptologie - LMU","MUC Parteizentrum"],
"portalTypeNum": [1,1,1,1,1,1,1,1,1,2,1,1,2,1,1,2,1,1,1,1],
"portalObjectiveNum": [1,1,1,1,1,1,1,1,1,7,1,1,7,1,1,7,1,1,1,1],
"id": 48
},
"geometry": {
"type": "LineString",
"coordinates": [
[
11.567649,48.147216
]
,[
11.567362,48.146303
]
,[
11.566726,48.146474
]
,[
11.566341,48.146443
]
,[
11.566047,48.146207
]
,[
11.566006,48.146146
]
,[
11.565614,48.146215
]
,[
11.56443,48.146872
]
,[
11.563926,48.146732
]
,[
11.563757,48.146441
]
,[
11.563734,48.146055
]
,[
11.564063,48.146129
]
,[
11.56438,48.146034
]
,[
11.565154,48.14544
]
,[
11.565107,48.145168
]
,[
11.566395,48.144849
]
,[
11.566807,48.145473
]
]
}
},

{"type": "Feature",
"properties":{
"time": 1473511025488,
"guid": "c53a47bf4f9a4514b75cda4b17d0d11f.1c",
"title": "Munich City 12 / 24",
"description": "Mission series dedicated to all people who visit, live or work in Munich. If you are short in time then do only 6, 12 or 18 parts. start of 1st mission: Marienplatz",
"author":"eeepee",
"authorTeam": "R",
"ratingE6": 742857,
"medianCompletionTimeMs": 1250555,
"numUniqueCompletedPlayers": 35,
"typeNumMission": 1,
"image": "https://lh3.googleusercontent.com/yBPdoRmSKth5TEsQR4X6GlYdBi8BkXYOdqzEDbPXZbwloASFfr_zIFV3nGBCXtcT19-uP3lKWFRVptGOjvYOzQ",
"portalTitle": ["NS Gedenkzentrum","Glücksspiellöwe","Karolinenplatz Obelisk","Amerika Haus","Staatssammlung für Antropologie und Paläoanatomie","Historisches Gebäude ","Steinerne Weltkugel","Carolinen Palais","Little Lion","Österreich-Haus","Woman with Vascular","Gedenkstein","Statue von Friedrich Schiller","Schöpfer dieser Anlage","Karl-Amadeus-Hartmann-Brunnen","Justus Liebig Statue","Pettenkofer Statue","Wittelsbacherbrunnen","Credit Suisse","Bernheimer-Haus"],
"portalTypeNum": [1,1,1,1,1,1,1,1,1,1,1,1,1,1,1,1,1,1,1,2],
"portalObjectiveNum": [1,1,1,1,1,1,1,1,1,1,1,1,1,1,1,1,1,1,1,7],
"id": 48
},
"geometry": {
"type": "LineString",
"coordinates": [
[
11.567646,48.145303
]
,[
11.568892,48.145165
]
,[
11.569142,48.144712
]
,[
11.568331,48.144466
]
,[
11.568641,48.144054
]
,[
11.570481,48.1444
]
,[
11.570845,48.144314
]
,[
11.571054,48.14405
]
,[
11.571485,48.144111
]
,[
11.571342,48.143885
]
,[
11.572229,48.143381
]
,[
11.572937,48.143249
]
,[
11.573206,48.14258
]
,[
11.572658,48.142428
]
,[
11.571893,48.142185
]
,[
11.571465,48.142036
]
,[
11.570846,48.141833
]
,[
11.569307,48.141287
]
,[
11.568647,48.141325
]
]
}
},

{"type": "Feature",
"properties":{
"time": 1473511042490,
"guid": "e52f2e4f5c144dbab355b3aaaf6e85fc.1c",
"title": "Munich City 13 / 24",
"description": "Mission series dedicated to all people who visit, live or work in Munich. If you are short in time then do only 6, 12 or 18 parts. start of 1st mission: Marienplatz",
"author":"eeepee",
"authorTeam": "R",
"ratingE6": 750000,
"medianCompletionTimeMs": 2263113,
"numUniqueCompletedPlayers": 29,
"typeNumMission": 1,
"image": "https://lh3.googleusercontent.com/EuEIlPAL7BZ2WFnm5h5JnoRP_wQUQ5X0f75iBlLlMIjgZIWwSeL1jyHKo1hUdVXRjJjJNgD9LzQy4lxVUEQi",
"portalTitle": ["Alte Börse München","The Bavarian Lion","Alter Botanischer Garten","Relief am Kunstpavillon","Miesbach to Munich Power Transmission","Park Cafe","Testa Scolpita","Umweltmammutbaum","Baum-Magnolie","Gelbholzbaum","The Ring","The Cyborg","Hauptbahnhof München","Eingang zum Hauptbahnhof","Tram 19","München Hauptbahnhof","Hermann Tietzes Kaufhaus","Ornamente Eingang Oberlandesgericht","Eckpfeiler der Justiz","Justizpalast Vordereingang"],
"portalTypeNum": [1,1,1,1,2,1,1,1,1,1,1,1,1,1,2,2,1,1,1,1],
"portalObjectiveNum": [1,1,1,1,7,1,1,1,1,1,1,1,1,1,7,7,1,1,1,1],
"id": 48
},
"geometry": {
"type": "LineString",
"coordinates": [
[
11.56757,48.140693
]
,[
11.566683,48.140986
]
,[
11.566208,48.14072
]
,[
11.565555,48.141769
]
,[
11.564491,48.142162
]
,[
11.564257,48.142388
]
,[
11.563264,48.141708
]
,[
11.56287,48.14183
]
,[
11.562297,48.141968
]
,[
11.561934,48.142282
]
,[
11.561096,48.141791
]
,[
11.560711,48.140198
]
,[
11.560932,48.139608
]
,[
11.561383,48.140706
]
,[
11.562975,48.140586
]
,[
11.563698,48.140374
]
,[
11.564494,48.140181
]
]
}
},

{"type": "Feature",
"properties":{
"time": 1473511064813,
"guid": "4c8d8ce4c6284ff18109e997d9116fb0.1c",
"title": "Munich City 14 / 24",
"description": "Mission series dedicated to all people who visit, live or work in Munich. If you are short in time then do only 6, 12 or 18 parts. start of 1st mission: Marienplatz",
"author":"eeepee",
"authorTeam": "R",
"ratingE6": 777778,
"medianCompletionTimeMs": 1838740,
"numUniqueCompletedPlayers": 27,
"typeNumMission": 1,
"image": "https://lh3.googleusercontent.com/OcjSB_C6JIg1QdSmlQHtccx4A0BzCTjpm4hzIGklRsHUdfqftR4zHCr4exUtGwuX0HjGra5e5mx828MwXfI",
"portalTitle": ["Mathäser Kino","Stachus Bahnstation","Stachus Passagen: surprisingly stylish and central","City KINOS","Evangelischer Handwerker-Verein","Schiller 36","Franz Marc","Anatomie der LMU","Stone Art","Sculpture at the Corner Petten","Ring","The Bronze Portal Ring","Mann Mit Bart ","Sitzende Frau","Frozen Face At Cafe Lenz ","Pfarrhaus St. Pauls","Esel Mit Harfe","Cathédrale St Paul","Oktoberfest's best view","Schildhalter"],
"portalTypeNum": [1,1,2,2,1,1,2,1,1,1,1,1,1,1,1,1,1,1,2,1],
"portalObjectiveNum": [1,1,7,7,1,1,7,1,1,1,1,1,1,1,1,1,1,1,7,1],
"id": 48
},
"geometry": {
"type": "LineString",
"coordinates": [
[
11.564012,48.139138
]
,[
11.565098,48.138806
]
,[
11.563073,48.136217
]
,[
11.560784,48.135812
]
,[
11.559958,48.134077
]
,[
11.558399,48.134404
]
,[
11.558339,48.134625
]
,[
11.557791,48.13468
]
,[
11.557525,48.13457
]
,[
11.556521,48.134854
]
,[
11.555499,48.134975
]
,[
11.553274,48.135385
]
,[
11.552983,48.136621
]
,[
11.551973,48.13658
]
,[
11.551668,48.136416
]
,[
11.551322,48.136018
]
]
}
},

{"type": "Feature",
"properties":{
"time": 1473511077415,
"guid": "9a1564b8a8c0419e93bfc666fa1da575.1c",
"title": "Munich City 15 / 24",
"description": "Mission series dedicated to all people who visit, live or work in Munich. If you are short in time then do only 6, 12 or 18 parts. start of 1st mission: Marienplatz",
"author":"eeepee",
"authorTeam": "R",
"ratingE6": 896552,
"medianCompletionTimeMs": 1647734,
"numUniqueCompletedPlayers": 30,
"typeNumMission": 1,
"image": "https://lh3.googleusercontent.com/O6sBdOwBIidiLVSAl0y-cFrKKVrCUa6prbjBjR_hPX1TxK2aQkn6D6AqjlWo5HkidQvl15s45khGpgQaGBk",
"portalTitle": ["Altes Gerichtsgebäude","Frauenstatue mit Efeu","Theresienwiese Klohaus","Theresienwiese Gedenktafel","Hacker-Pschorr Bräuhaus","Hotel Krone","Maria mit Kind","Hausverzierungen","Elefant","Raffknoten","U-Bahn Schwanthalerhöhe","Bergbahn","Schnellzuglokomotive Gattung S 3/6","Deutsches Museum Verkehrszentrum","Bavaria Halfpipe","Alte Kongresshalle","Bayerische Zugspitzbahn","WW1 Memorial Theresienwiese","Up in Bavaria","Bavaria statue"],
"portalTypeNum": [1,1,1,1,1,1,1,1,1,1,1,1,1,1,1,1,1,1,2,2],
"portalObjectiveNum": [1,1,1,1,1,1,1,1,1,1,1,1,1,1,1,1,1,1,7,7],
"id": 48
},
"geometry": {
"type": "LineString",
"coordinates": [
[
11.551024,48.135959
]
,[
11.550734,48.13603
]
,[
11.549739,48.13629
]
,[
11.549709,48.135901
]
,[
11.547958,48.136068
]
,[
11.547272,48.135554
]
,[
11.545904,48.134714
]
,[
11.544849,48.134556
]
,[
11.543993,48.134166
]
,[
11.543884,48.133967
]
,[
11.54397,48.133641
]
,[
11.54373,48.132922
]
,[
11.543562,48.132722
]
,[
11.543046,48.132758
]
,[
11.543738,48.132439
]
,[
11.544588,48.132274
]
,[
11.545652,48.132479
]
,[
11.546032,48.131814
]
]
}
},

{"type": "Feature",
"properties":{
"time": 1473511093681,
"guid": "932c0aba07dd451d81bd8f0daf916673.1c",
"title": "Munich City 16 / 24",
"description": "Mission series dedicated to all people who visit, live or work in Munich. If you are short in time then do only 6, 12 or 18 parts. start of 1st mission: Marienplatz",
"author":"eeepee",
"authorTeam": "R",
"ratingE6": 840000,
"medianCompletionTimeMs": 4229785,
"numUniqueCompletedPlayers": 26,
"typeNumMission": 1,
"image": "https://lh3.googleusercontent.com/OB0nDvbu3RinnrbROKg4UCdIG4mGA4cg7obqgSaZmcnMQ0qeh2KxvhXryQdUN2VJUQh_VmnXaWPTq-9fpgdi",
"portalTitle": ["Monaco Bavaria","Paulaner auf dem Oktoberfest","Hundetonne Eins","Theresienwiese","Maria mit Kind","Alte verzierte Fassade","Altbau am Bavariapark","Theresien Gymnasium","Monument of Louis IV the Holy","Hallebrandt Haus","Prämiertes Meisterstück","Klinik Emblem","Mosaic of Äskulap","Angel Saving the Pilgrim","Klinik der Universität","Plaque Bizzare","Maria Statue","Pinkmonster Fitness","Sacrificial Structure on Side of Building","Mariae Statue on Building"],
"portalTypeNum": [1,1,1,1,1,1,1,1,1,1,1,1,1,1,1,1,1,1,1,1],
"portalObjectiveNum": [1,1,1,1,1,1,1,1,1,1,1,1,1,1,1,1,1,1,1,1],
"id": 48
},
"geometry": {
"type": "LineString",
"coordinates": [
[
11.545971,48.130672
]
,[
11.546931,48.130752
]
,[
11.54882,48.130425
]
,[
11.552832,48.130229
]
,[
11.554318,48.13061
]
,[
11.554395,48.130897
]
,[
11.554964,48.131257
]
,[
11.556192,48.131917
]
,[
11.555798,48.132016
]
,[
11.556199,48.132539
]
,[
11.556903,48.132655
]
,[
11.560131,48.13291
]
,[
11.560859,48.133182
]
,[
11.561523,48.133219
]
,[
11.562358,48.132418
]
,[
11.562538,48.132258
]
,[
11.563671,48.13185
]
,[
11.565791,48.132176
]
,[
11.56668,48.13169
]
,[
11.566553,48.131281
]
]
}
},

{"type": "Feature",
"properties":{
"time": 1473511106041,
"guid": "8778dcf2b4da4f5ab375e0f9670e59a7.1c",
"title": "Munich City 17 / 24",
"description": "Mission series dedicated to all people who visit, live or work in Munich. If you are short in time then do only 6, 12 or 18 parts. Series covers south of center.start of 1st mission: Marienplatz",
"author":"eeepee",
"authorTeam": "R",
"ratingE6": 896552,
"medianCompletionTimeMs": 2627007,
"numUniqueCompletedPlayers": 29,
"typeNumMission": 1,
"image": "https://lh3.googleusercontent.com/I_XU0RmXcIG1L9Ksy5es4HOnrgM1Xj1GyYxF37I4jUfbbyclYgPakKbcWxDZYwvm52h0oHkFMXjyhcOTjmZxKA",
"portalTitle": ["Fountain at Südfriedhof","Alter Südlicher Friedhof","Alter Südfriedhof","Grabmal","Engel","Grabstätte","Breslau-Statue","The Guy With the Fish","Glockenbach-T-Rex","Karl-Heinrich-Ulrichs-Platz","Girl","Wooden Tower Of The Gingle-Creek","Das Portalpärchen","Wittelsbacher Engel","Reichenbach Kiosk","Reichenbachbrücke süd","Skulptur mit Wurm","Die Badende","Rusted Portal","Planetenweg - Jupiter"],
"portalTypeNum": [1,2,1,1,1,1,1,1,1,1,1,1,1,1,2,1,1,1,1,1],
"portalObjectiveNum": [1,7,1,1,1,1,1,1,1,1,1,1,1,1,7,1,1,1,1,1],
"id": 48
},
"geometry": {
"type": "LineString",
"coordinates": [
[
11.566495,48.131037
]
,[
11.566329,48.130556
]
,[
11.565425,48.129414
]
,[
11.564745,48.128312
]
,[
11.56442,48.127807
]
,[
11.564309,48.126199
]
,[
11.565033,48.125954
]
,[
11.566341,48.125865
]
,[
11.566568,48.126033
]
,[
11.567973,48.126514
]
,[
11.569509,48.125728
]
,[
11.570911,48.125258
]
,[
11.572076,48.125712
]
,[
11.576311,48.127621
]
,[
11.576986,48.127052
]
,[
11.577638,48.126674
]
,[
11.578389,48.127136
]
,[
11.579949,48.127624
]
]
}
},

{"type": "Feature",
"properties":{
"time": 1473511119845,
"guid": "3a7112d064ee453685debfc02f4d184d.1c",
"title": "Munich City 18 / 24",
"description": "Mission series dedicated to all people who visit, live or work in Munich. If you are short in time then do only 6, 12 or 18 parts.start of 1st mission: Marienplatz",
"author":"eeepee",
"authorTeam": "R",
"ratingE6": 892857,
"medianCompletionTimeMs": 2253307,
"numUniqueCompletedPlayers": 29,
"typeNumMission": 1,
"image": "https://lh3.googleusercontent.com/5BAh0zYtAxsmuzY4aL5UoawxDG0cFCE2ToCUuTDcIMUSgZr6e9hjXuwY3GXcLnnn8ZrtCjgCn_rfOQNIRf0",
"portalTitle": ["Farbentunnel","Pestalozzi Mural","Vision","Mariahilf-Brunnen","Mariahilfkirche","St. Franziskus Brunnen","Paulaner Graffiti","Der Patron der Wegmacher","Paulaner Garten","Frischer Schweinsbraten","Nockherberg Lion","350 Jahre Paulanerbräu","Statuen","Optische Täuschung","Haus Skulptur Bei Hotel Prinz ","Gebsattelbrücke","Giesinger Bär","Marienfigur am Wageck","Statue of the Fountain at the ","Wirtshaus in der Au"],
"portalTypeNum": [1,1,1,1,1,1,1,1,1,1,1,1,1,1,1,1,1,1,1,2],
"portalObjectiveNum": [1,1,1,1,1,1,1,1,1,1,1,1,1,1,1,1,1,1,1,7],
"id": 48
},
"geometry": {
"type": "LineString",
"coordinates": [
[
11.580919,48.128047
]
,[
11.582634,48.127089
]
,[
11.583125,48.126797
]
,[
11.582981,48.125723
]
,[
11.583264,48.125515
]
,[
11.581425,48.124306
]
,[
11.582134,48.122422
]
,[
11.581632,48.121638
]
,[
11.582159,48.121133
]
,[
11.58259,48.121449
]
,[
11.582462,48.121891
]
,[
11.58296,48.122321
]
,[
11.584012,48.12283
]
,[
11.584697,48.123087
]
,[
11.586033,48.124281
]
,[
11.586373,48.125642
]
,[
11.586498,48.12581
]
,[
11.584696,48.127683
]
,[
11.586142,48.128852
]
]
}
},

{"type": "Feature",
"properties":{
"time": 1473511135314,
"guid": "ac35a5cc50b24193a3b13198ba99e0f9.1c",
"title": "Munich City 19 / 24",
"description": "Mission series dedicated to all people who visit, live or work in Munich. If you are short in time then do only 6, 12 or 18 parts. start of 1st mission: Marienplatz",
"author":"eeepee",
"authorTeam": "R",
"ratingE6": 869565,
"medianCompletionTimeMs": 3505412,
"numUniqueCompletedPlayers": 25,
"typeNumMission": 1,
"image": "https://lh3.googleusercontent.com/jUe0NBqQOLwLFwb3K_Q9TM4JVbDI7_idlleZtKkdOjdoBfeDG3xA1tT0ttJpO_8jZSMPTIZv1Mb8VdWW6Vp4UA",
"portalTitle": ["Paulanerbrunnen","Museum Lichtspiele","Gasteig Art Sculpture","Freddy Mercury @ Gasteig","Tuba Fontain","Gedenktafel Georg Elser","Erich-Schulze-Brunnen (Hupe)","Portal Lion","Beige Eklecticism","Lorettokapelle","Jesus Am Kreuz","Volksbad","Wall Art at Muffatwerk","Fassgrafitti","Müller'sches Volksbad","Thinking Lady ","Männerkopf","Planetenweg - Erde","Museumsinsel Sonnenuhr"],
"portalTypeNum": [1,2,1,1,1,1,1,1,1,1,1,1,1,1,2,1,1,1,1],
"portalObjectiveNum": [1,7,1,1,1,1,1,1,1,1,1,1,1,1,7,1,1,1,1],
"id": 48
},
"geometry": {
"type": "LineString",
"coordinates": [
[
11.586466,48.129104
]
,[
11.589869,48.131671
]
,[
11.592173,48.130464
]
,[
11.592193,48.130796
]
,[
11.592466,48.130677
]
,[
11.592979,48.130466
]
,[
11.593012,48.131479
]
,[
11.592053,48.131798
]
,[
11.591189,48.132825
]
,[
11.590301,48.132487
]
,[
11.588405,48.131785
]
,[
11.589419,48.132393
]
,[
11.588528,48.132962
]
,[
11.587368,48.131307
]
,[
11.586523,48.130344
]
,[
11.585154,48.129372
]
,[
11.584215,48.129918
]
]
}
},

{"type": "Feature",
"properties":{
"time": 1473511139980,
"guid": "af4b2767b78d4fc2bbb7c916058d9052.1c",
"title": "Munich City 20 / 24",
"description": "Mission series dedicated to all people who visit, live or work in Munich. If you are short in time then do only 6, 12 or 18 parts. start of 1st mission: Marienplatz",
"author":"eeepee",
"authorTeam": "R",
"ratingE6": 913043,
"medianCompletionTimeMs": 3970553,
"numUniqueCompletedPlayers": 25,
"typeNumMission": 1,
"image": "https://lh3.googleusercontent.com/GN-jmaTYLGmr9kDFWmIGwVn-3m7dhxT3WtMqiyRNx44OvYYyncXM2wwNS0dpeuS8Imj1dM0j91MUuHx1bwca",
"portalTitle": ["Turbine outside the Deutsches","Asmus Bremer Seenotrettungsboot","Deutsches Museum","Planetenweg - Sonne","Löwe am Deutschen Museum","Deutsches Museum","Bismarck-Denkmal","Fahnenwald","Kleine Schutzmadonna","Patentamt","Male Worker On Ludwigsbrücke","Ludwigsbrücke","Forum der Technik","Giant Propeller","Grünanlage Auf der Insel","Vater Rhein Brunnen","Resting Hiker","Statue in der Isar","Maximilianeum Turm S","Baccus"],
"portalTypeNum": [1,1,2,1,1,1,1,1,1,1,1,1,1,1,1,1,1,1,1,1],
"portalObjectiveNum": [1,1,7,1,1,1,1,1,1,1,1,1,1,1,1,1,1,1,1,1],
"id": 48
},
"geometry": {
"type": "LineString",
"coordinates": [
[
11.583961,48.129914
]
,[
11.583693,48.129897
]
,[
11.583872,48.130145
]
,[
11.58357,48.130309
]
,[
11.583225,48.130379
]
,[
11.582623,48.130921
]
,[
11.582156,48.130965
]
,[
11.582228,48.131962
]
,[
11.583758,48.132709
]
,[
11.584876,48.132087
]
,[
11.585662,48.13184
]
,[
11.586005,48.131606
]
,[
11.586287,48.131593
]
,[
11.586738,48.132064
]
,[
11.586609,48.132396
]
,[
11.589066,48.134937
]
,[
11.589825,48.136734
]
,[
11.593737,48.135793
]
,[
11.59464,48.13528
]
]
}
},

{"type": "Feature",
"properties":{
"time": 1473511156868,
"guid": "bd972cb0caa64186a8263dc65a0c74fb.1c",
"title": "Munich City 21 / 24",
"description": "Mission series dedicated to all people who visit, live or work in Munich. If you are short in time then do only 6, 12 or 18 parts.start of 1st mission: Marienplatz",
"author":"eeepee",
"authorTeam": "R",
"ratingE6": 884615,
"medianCompletionTimeMs": 1751933,
"numUniqueCompletedPlayers": 26,
"typeNumMission": 1,
"image": "https://lh3.googleusercontent.com/602FyhorBAT61B1zwiWTr_O19Jb9VFvSh7U75fYUdWNiMX_e9kntratSOs2-jYw8N4rllhj6q_Shp8hWOh0D",
"portalTitle": ["Maibaum Wiener Platz","Karl Valentin","Biergarten Hofbräukeller","Fisch Häusl","Portalkunst Innere Wiener 46","Maria Mit Kind","Ritter Skulptur","Indian Angel","Preysinggarten","Kriechbaumhof Preysingstr.","Kriechbaumhof","Painting Woman","Zum Kloster","Wasserwerk Bar","Haidhausen-Museum","Kolping","Merkwürdiger Steinhügl","Tram Station Max-Weber-Platz","St. Johann Baptist Church","St. Stephans Dom (Wien) ","Yellow Marie"],
"portalTypeNum": [1,1,2,2,1,1,1,1,1,1,2,1,2,1,1,1,1,1,1,1,1],
"portalObjectiveNum": [1,1,7,7,1,1,1,1,1,1,7,1,7,1,1,1,1,1,1,1,1],
"id": 48
},
"geometry": {
"type": "LineString",
"coordinates": [
[
11.596121,48.134439
]
,[
11.595456,48.134349
]
,[
11.596209,48.13398
]
,[
11.597088,48.133411
]
,[
11.597438,48.132385
]
,[
11.598204,48.132398
]
,[
11.599242,48.132404
]
,[
11.599894,48.132394
]
,[
11.600252,48.132245
]
,[
11.601373,48.133243
]
,[
11.601436,48.133799
]
,[
11.60001,48.134176
]
,[
11.598806,48.134342
]
,[
11.598037,48.134479
]
,[
11.59768,48.134008
]
,[
11.597087,48.134274
]
,[
11.597288,48.134662
]
]
}
},

{"type": "Feature",
"properties":{
"time": 1473511171313,
"guid": "da3f204bff004b0d929a23bfcfe761c2.1c",
"title": "Munich City 22 / 24",
"description": "Mission series dedicated to all people who visit, live or work in Munich. If you are short in time then do only 6, 12 or 18 parts. start of 1st mission: Marienplatz",
"author":"eeepee",
"authorTeam": "R",
"ratingE6": 920000,
"medianCompletionTimeMs": 2870796,
"numUniqueCompletedPlayers": 26,
"typeNumMission": 1,
"image": "https://lh3.googleusercontent.com/5j0uqVj_SxgZADX82K2GZC7VL-KhKGeeYmZ9pejggyUhas9ZkqGIhzhP6aIU7rH_iIDH1srry_1EsrhH52g",
"portalTitle": ["Munich Max-Weber-Platz","Wasserspucker","Bayerischer Landtag","Heiliger an Laterne","Brunnen an der Praterinsel","Kunst","Wilhelmsgymnasium","Schnitterinbrunnen","Roosevelt Bar","XII Apostel Restaurant","Fassade Mit Bayerischem Wappen","Schokoladengalerie ","Historische Fassade","Finest Korean Food","Feuchtwanger-Haus","Bibliothek @ St. Anna","View of Sankt Anna Platz","Historic Portal 1891 at St. Anna","Historic Portal at St. Anna Gymnasium","Klosterkirche St. Anna"],
"portalTypeNum": [1,1,1,1,1,1,1,1,1,1,1,1,1,1,1,1,1,1,1,1],
"portalObjectiveNum": [1,1,1,1,1,1,1,1,1,1,1,1,1,1,1,1,1,1,1,1],
"id": 48
},
"geometry": {
"type": "LineString",
"coordinates": [
[
11.598087,48.135479
]
,[
11.595347,48.136196
]
,[
11.593506,48.136531
]
,[
11.591706,48.136979
]
,[
11.591306,48.137073
]
,[
11.589627,48.137457
]
,[
11.588364,48.137858
]
,[
11.588869,48.139236
]
,[
11.589229,48.139534
]
,[
11.589561,48.139601
]
,[
11.589739,48.139825
]
,[
11.588771,48.140314
]
,[
11.588528,48.140224
]
,[
11.588234,48.140074
]
,[
11.587924,48.140066
]
,[
11.587776,48.140268
]
,[
11.587909,48.140426
]
,[
11.587863,48.140736
]
,[
11.586861,48.140777
]
,[
11.586547,48.140288
]
]
}
},

{"type": "Feature",
"properties":{
"time": 1473511184016,
"guid": "9cadf62165424f92bdee17811f9aa8d2.1c",
"title": "Munich City 23 / 24",
"description": "Mission series dedicated to all people who visit, live or work in Munich. If you are short in time then do only 6, 12 or 18 parts.start of 1st mission: Marienplatz",
"author":"eeepee",
"authorTeam": "R",
"ratingE6": 833333,
"medianCompletionTimeMs": 1192094,
"numUniqueCompletedPlayers": 24,
"typeNumMission": 1,
"image": "https://lh3.googleusercontent.com/iOxF-Me8eOqgBdziRgphBr0bavkscQwVCqurlVppsOs11CKYVCvrQp7StY2CygBdAXYz1ZPJqW-3xtSotUo",
"portalTitle": ["Statue","Pfarrkirche St. Anna im Lehel","Brunnen Am St. Anna Platz","Konditorei Sankt Anna ","Maria Gandl","Salotto","The Key","Maria","Thompson-Graf-von-Rumford Statue","Graf-von-Deroy-Statue","Maximilianstraße/Regierung von Oberbayern","Schelling Der Große Philosoph","Museum Für Völkerkunde","Fraunhofer Statue","Statuen","Gates of Maxmonument","Putten Pension Beck ","Mariannenplatz","Betende Steinfiguren","Mariannenplatz Station"],
"portalTypeNum": [1,1,1,1,1,1,1,1,1,1,1,1,1,1,1,1,1,1,1,1],
"portalObjectiveNum": [1,1,1,1,1,1,1,1,1,1,1,1,1,1,1,1,1,1,1,1],
"id": 48
},
"geometry": {
"type": "LineString",
"coordinates": [
[
11.586328,48.140169
]
,[
11.586842,48.14021
]
,[
11.586938,48.139956
]
,[
11.586689,48.13988
]
,[
11.587126,48.139775
]
,[
11.586977,48.139516
]
,[
11.587045,48.139179
]
,[
11.586948,48.138705
]
,[
11.586037,48.13808
]
,[
11.585588,48.138142
]
,[
11.584799,48.137944
]
,[
11.585466,48.137947
]
,[
11.585626,48.137658
]
,[
11.585934,48.137857
]
,[
11.586515,48.137476
]
,[
11.588593,48.13722
]
,[
11.587767,48.136227
]
,[
11.587314,48.135605
]
,[
11.587653,48.135057
]
,[
11.586965,48.13516
]
]
}
},

{"type": "Feature",
"properties":{
"time": 1473511192234,
"guid": "3d9c80f30e5d4553b229628601edce5b.1c",
"title": "Munich City 24 / 24",
"description": "Mission series dedicated to all people who visit, live or work in Munich. If you are short in time then do only 6, 12 or 18 parts.",
"author":"eeepee",
"authorTeam": "R",
"ratingE6": 920000,
"medianCompletionTimeMs": 1824855,
"numUniqueCompletedPlayers": 25,
"typeNumMission": 1,
"image": "https://lh3.googleusercontent.com/Fk0EVXdPA5w0C3zRAeSiVXTHlRUxE5GdFaT7W3YU3g8F4ch0qu5NkUHPIzlbUGXMzkTwoNSMbX4I8AIqLyxJ1w",
"portalTitle": ["Stone Human ","Guardian","Königlich Bayerischer Hoflieferant","Der Wucherer","Soldaten","Maria mit Jesuskind","Kabelbinderampel","Ornate Gateway","Zwingereck","Rumford-Raumschiff ","Mural mit einem Auge","GärtnerSkulptur","Statue on Top of Theater at Theater","Vogeltor","Maria im Gfängnis","Theater im Fraunhofer","Schwarze Madonna","Schlüssellöwe","Franz Stelzhamers Haus","The Smurf"],
"portalTypeNum": [1,1,1,1,1,1,1,1,1,1,1,1,1,1,1,1,1,1,1,1],
"portalObjectiveNum": [1,1,1,1,1,1,1,1,1,1,1,1,1,1,1,1,1,1,1,1],
"id": 48
},
"geometry": {
"type": "LineString",
"coordinates": [
[
11.58654,48.134831
]
,[
11.586014,48.134527
]
,[
11.58558,48.134326
]
,[
11.584836,48.134353
]
,[
11.584131,48.134275
]
,[
11.5831,48.133828
]
,[
11.582116,48.133635
]
,[
11.580607,48.133757
]
,[
11.579747,48.134014
]
,[
11.579294,48.133813
]
,[
11.576944,48.132117
]
,[
11.576228,48.13181
]
,[
11.575815,48.131353
]
,[
11.574897,48.130892
]
,[
11.573769,48.130251
]
,[
11.572542,48.130722
]
,[
11.572266,48.130949
]
,[
11.57181,48.131326
]
,[
11.572225,48.131755
]
,[
11.574176,48.132735
]
]
}
}]}