{"type": "FeatureCollection","features": [{"type": "Feature","properties": {"mission":1},"geometry":{"type": "Point","coordinates":[
11.684061,48.214031
]
}},{"type": "Feature","properties": {"mission":2},"geometry":{"type": "Point","coordinates":[
11.67545,48.218973
]
}},{"type": "Feature","properties": {"mission":3},"geometry":{"type": "Point","coordinates":[
11.676782,48.22245
]
}},{"type": "Feature","properties": {"mission":4},"geometry":{"type": "Point","coordinates":[
11.67381,48.222156
]
}},{"type": "Feature","properties": {"mission":5},"geometry":{"type": "Point","coordinates":[
11.687033,48.222959
]
}},{"type": "Feature","properties": {"mission":6},"geometry":{"type": "Point","coordinates":[
11.671312,48.225843
]
}},{"type": "Feature","properties": {"mission":7},"geometry":{"type": "Point","coordinates":[
11.67301,48.22761
]
}},{"type": "Feature","properties": {"mission":8},"geometry":{"type": "Point","coordinates":[
11.672198,48.229104
]
}},{"type": "Feature","properties": {"mission":9},"geometry":{"type": "Point","coordinates":[
11.674258,48.229268
]
}},{"type": "Feature","properties": {"mission":10},"geometry":{"type": "Point","coordinates":[
11.674858,48.227251
]
}},{"type": "Feature","properties": {"mission":11},"geometry":{"type": "Point","coordinates":[
11.674031,48.225243
]
}},{"type": "Feature","properties": {"mission":12},"geometry":{"type": "Point","coordinates":[
11.675056,48.224793
]
}},{"type": "Feature","properties": {"mission":13},"geometry":{"type": "Point","coordinates":[
11.67545,48.226596
]
}},{"type": "Feature","properties": {"mission":14},"geometry":{"type": "Point","coordinates":[
11.676728,48.226763
]
}},{"type": "Feature","properties": {"mission":15},"geometry":{"type": "Point","coordinates":[
11.678956,48.227223
]
}},{"type": "Feature","properties": {"mission":16},"geometry":{"type": "Point","coordinates":[
11.678369,48.224371
]
}},{"type": "Feature","properties": {"mission":17},"geometry":{"type": "Point","coordinates":[
11.67646,48.226023
]
}},{"type": "Feature","properties": {"mission":18},"geometry":{"type": "Point","coordinates":[
11.655038,48.21217
]
}}]}