{"type":"FeatureCollection","features":[{"type": "Feature",
"properties":{
"time": 1473058147338,
"guid": "55cc18e73a9e46a89428632031133643.1c",
"title": "Siegestor München 1 / 24",
"description": "Das Siegestor wurde 1843 bis 1850 aus Kelheimer Kalkstein errichtet. Am 15. Oktober 1850 übergab König Maximilian II. im Namen seines abgedankten Vaters das Siegestor an die Stadt München.",
"author":"DestinationMuc",
"authorTeam": "R",
"ratingE6": 972973,
"medianCompletionTimeMs": 513775,
"numUniqueCompletedPlayers": 43,
"typeNumMission": 2,
"image": "https://lh3.googleusercontent.com/IshLoAXAVyuN2i_msSiu0p5jK1rSCnplRaCXWIlsnETm2eezCYX05JFgRCKYclzO3nbOVXg_kcL19oeztpvV_Q",
"portalTitle": ["Dramatic Mural Above Golfino ","Residenz","Lion Odeonsplatz","Löwe","Schöne und Biest","Feldherrnhalle"],
"portalTypeNum": [1,1,1,1,1,1],
"portalObjectiveNum": [8,1,1,1,1,1],
"id": 9
},
"geometry": {
"type": "LineString",
"coordinates": [
[
11.577356,48.140569
]
,[
11.577259,48.140794
]
,[
11.577626,48.141269
]
,[
11.57772,48.141742
]
,[
11.577384,48.14177
]
,[
11.577105,48.141708
]
]
}
},

{"type": "Feature",
"properties":{
"time": 1473058150638,
"guid": "1f9b077429ef4750973602519fb77ddb.1c",
"title": "Siegestor München 2 / 24",
"description": "Das Siegestor wurde 1843 bis 1850 aus Kelheimer Kalkstein errichtet. Am 15. Oktober 1850 übergab König Maximilian II. im Namen seines abgedankten Vaters das Siegestor an die Stadt München.",
"author":"DestinationMuc",
"authorTeam": "R",
"ratingE6": 976190,
"medianCompletionTimeMs": 423354,
"numUniqueCompletedPlayers": 42,
"typeNumMission": 2,
"image": "https://lh3.googleusercontent.com/AHWSg2B_j-gR6ak5NfRNuycXpcoLrADlxKYq1q5I6xkG_8n7O0sRALoudrRPOFBUceW53UJ4lEsVbvVpT7yL",
"portalTitle": ["Theatinerkirche","Café Tambosi","Hofgarten","Hofgarten, München","Hofgarten","Lowrider Parasol"],
"portalTypeNum": [1,1,1,1,1,1],
"portalObjectiveNum": [1,1,1,1,1,1],
"id": 9
},
"geometry": {
"type": "LineString",
"coordinates": [
[
11.577121,48.141991
]
,[
11.578093,48.142804
]
,[
11.578185,48.142454
]
,[
11.578542,48.142322
]
,[
11.579427,48.14277
]
,[
11.580401,48.142585
]
]
}
},

{"type": "Feature",
"properties":{
"time": 1473058170077,
"guid": "1ba284fc42f343b7819a43d38b2a7b3a.1c",
"title": "Siegestor München 3 / 24",
"description": "Das Siegestor wurde 1843 bis 1850 aus Kelheimer Kalkstein errichtet. Am 15. Oktober 1850 übergab König Maximilian II. im Namen seines abgedankten Vaters das Siegestor an die Stadt München.",
"author":"DestinationMuc",
"authorTeam": "R",
"ratingE6": 974359,
"medianCompletionTimeMs": 408264,
"numUniqueCompletedPlayers": 42,
"typeNumMission": 2,
"image": "https://lh3.googleusercontent.com/y4dJv0gb2bfN73icf-ywH1T-aHjrdAxHrQ8pxPH0AE1oUyUt0bxnWq6Rgk_IXcuzcx3UM4jgbV7769hVgKAI",
"portalTitle": ["Brunnen im Hofgarten","Dianatempel im Hofgarten","Arkaden am Hofgarten","Northwestern fountain at Hofgarten","Fountain of a Woman Thinking","Schumann's American Bar"],
"portalTypeNum": [1,1,1,1,1,2],
"portalObjectiveNum": [1,1,1,1,1,7],
"id": 9
},
"geometry": {
"type": "LineString",
"coordinates": [
[
11.580662,48.143077
]
,[
11.580019,48.142981
]
,[
11.580178,48.143387
]
,[
11.579604,48.143308
]
,[
11.578668,48.143194
]
]
}
},

{"type": "Feature",
"properties":{
"time": 1473058175604,
"guid": "de7d03f515d74482abe27242f2f3d44e.1c",
"title": "Siegestor München 4 / 24",
"description": "Das Siegestor wurde 1843 bis 1850 aus Kelheimer Kalkstein errichtet. Am 15. Oktober 1850 übergab König Maximilian II. im Namen seines abgedankten Vaters das Siegestor an die Stadt München.",
"author":"DestinationMuc",
"authorTeam": "R",
"ratingE6": 950000,
"medianCompletionTimeMs": 467131,
"numUniqueCompletedPlayers": 42,
"typeNumMission": 2,
"image": "https://lh3.googleusercontent.com/ZIa5K6QLbG1Jb2kKL0KCMUULqVFgQVUFo6F1bH4ZiUYNfNqCiEsAmBfWurhDo9vPA8LvApnqvL4GPhpmOwbY",
"portalTitle": ["Denkmal für König Ludwig I. vo","Griechische Göttin mit Harfe","Bayerisches Staatsministerium Der Finanzen","Two Lions","Bayerisches Sozialgericht","Bayrisches Landessozialgericht "],
"portalTypeNum": [1,1,1,1,1,1],
"portalObjectiveNum": [1,1,1,1,1,1],
"id": 9
},
"geometry": {
"type": "LineString",
"coordinates": [
[
11.577828,48.143564
]
,[
11.577812,48.143786
]
,[
11.577565,48.143987
]
,[
11.578368,48.144872
]
,[
11.578611,48.145555
]
,[
11.579113,48.146307
]
]
}
},

{"type": "Feature",
"properties":{
"time": 1473058193637,
"guid": "f971f09adba849a2bc482aca877077d1.1c",
"title": "Siegestor München 5 / 24",
"description": "Das Siegestor wurde 1843 bis 1850 aus Kelheimer Kalkstein errichtet. Am 15. Oktober 1850 übergab König Maximilian II. im Namen seines abgedankten Vaters das Siegestor an die Stadt München.",
"author":"DestinationMuc",
"authorTeam": "R",
"ratingE6": 975610,
"medianCompletionTimeMs": 411375,
"numUniqueCompletedPlayers": 43,
"typeNumMission": 2,
"image": "https://lh3.googleusercontent.com/Gd11SQyOAig-E5tgzLqVJs_pDFn9DekiGD2IpYI55iMRZGXChgdIW5A3s8X2d-AAn1ukE6YeFR3rVf64lADDNQ",
"portalTitle": ["Wohnhaus der Kaiserin Sissi","Schmeller-Haus","Deutsche Post Office","Leonardo Hotel","Gustav Landauer ","Fremdspracheninstitut"],
"portalTypeNum": [1,1,1,1,1,1],
"portalObjectiveNum": [1,1,1,1,1,1],
"id": 9
},
"geometry": {
"type": "LineString",
"coordinates": [
[
11.578338,48.147242
]
,[
11.578116,48.147139
]
,[
11.576852,48.147658
]
,[
11.576529,48.147608
]
,[
11.576796,48.148033
]
,[
11.577172,48.148197
]
]
}
},

{"type": "Feature",
"properties":{
"time": 1473058197518,
"guid": "7bbb2e6b19d44458877c41bd8106b2e5.1c",
"title": "Siegestor München 6 / 24",
"description": "Das Siegestor wurde 1843 bis 1850 aus Kelheimer Kalkstein errichtet. Am 15. Oktober 1850 übergab König Maximilian II. im Namen seines abgedankten Vaters das Siegestor an die Stadt München.",
"author":"DestinationMuc",
"authorTeam": "R",
"ratingE6": 976190,
"medianCompletionTimeMs": 280269,
"numUniqueCompletedPlayers": 43,
"typeNumMission": 2,
"image": "https://lh3.googleusercontent.com/Zebd-EpyimkJStBlvSnifdWSlZZfxzX0AcUCYBhf17U8oNVDIo_qZsV_bPcdEIB9AQcDeHiCL2OuI8626J9HBA",
"portalTitle": ["BFS Sprache","Kopf der Athene","Internationales Begegnungszentrum","Folk, Munich","Nudo Pastabar","Maria und Jesus"],
"portalTypeNum": [1,1,1,2,2,1],
"portalObjectiveNum": [1,1,1,7,7,1],
"id": 9
},
"geometry": {
"type": "LineString",
"coordinates": [
[
11.577378,48.148472
]
,[
11.57738,48.148522
]
,[
11.577513,48.148639
]
,[
11.577861,48.149566
]
]
}
},

{"type": "Feature",
"properties":{
"time": 1473058207750,
"guid": "5cc003b1637d4f24b7f13a5ac59b7685.1c",
"title": "Siegestor München 7 / 24",
"description": "Das Siegestor wurde 1843 bis 1850 aus Kelheimer Kalkstein errichtet. Am 15. Oktober 1850 übergab König Maximilian II. im Namen seines abgedankten Vaters das Siegestor an die Stadt München.",
"author":"DestinationMuc",
"authorTeam": "R",
"ratingE6": 976744,
"medianCompletionTimeMs": 308780,
"numUniqueCompletedPlayers": 44,
"typeNumMission": 2,
"image": "https://lh3.googleusercontent.com/LN30GL1c9P_Qcdm_MzwhL2sj04lvKPbNafsNEqil_Thr7VrWmQjPTyzRPrUaDnkRofBQ5y3SER7hiJ60wrKM",
"portalTitle": ["Maria with child","Words' Worth","Fakultät für Physik","Lost Weekend","Orange-roter Brunnen","Wunden der Erinnerung "],
"portalTypeNum": [1,2,1,2,1,1],
"portalObjectiveNum": [1,7,1,7,1,1],
"id": 9
},
"geometry": {
"type": "LineString",
"coordinates": [
[
11.57791,48.149802
]
,[
11.579429,48.149373
]
,[
11.579637,48.148935
]
,[
11.580304,48.149114
]
]
}
},

{"type": "Feature",
"properties":{
"time": 1473058211137,
"guid": "6ba8617460664ee69b3ba5cf81e1ec62.1c",
"title": "Siegestor München 8 / 24",
"description": "Das Siegestor wurde 1843 bis 1850 aus Kelheimer Kalkstein errichtet. Am 15. Oktober 1850 übergab König Maximilian II. im Namen seines abgedankten Vaters das Siegestor an die Stadt München.",
"author":"DestinationMuc",
"authorTeam": "R",
"ratingE6": 976190,
"medianCompletionTimeMs": 477966,
"numUniqueCompletedPlayers": 43,
"typeNumMission": 2,
"image": "https://lh3.googleusercontent.com/-DNfmgm3vyOXy5MSws_Z0uoCkwLfgmmCVopc9KrhOjAhwq2W2VxJRNrNRayhKP6efYznLul2cQT_yoG_MqnpPw",
"portalTitle": ["Lungo Ludwigstrasse","Universitätsbrunnen","Sophie Scholl Flugblätter","Geschwister Scholl Mahnung","Grantiger Deife","Anno 1899"],
"portalTypeNum": [1,1,1,1,1,1],
"portalObjectiveNum": [1,1,1,1,1,1],
"id": 9
},
"geometry": {
"type": "LineString",
"coordinates": [
[
11.580813,48.149968
]
,[
11.58098,48.150691
]
,[
11.580557,48.150777
]
,[
11.580695,48.151057
]
,[
11.581329,48.151474
]
,[
11.580484,48.15172
]
]
}
},

{"type": "Feature",
"properties":{
"time": 1473058223072,
"guid": "55e7726bf8dd4ef4a44b0b47c2f1853f.1c",
"title": "Siegestor München 9 / 24",
"description": "Das Siegestor wurde 1843 bis 1850 aus Kelheimer Kalkstein errichtet. Am 15. Oktober 1850 übergab König Maximilian II. im Namen seines abgedankten Vaters das Siegestor an die Stadt München.",
"author":"DestinationMuc",
"authorTeam": "R",
"ratingE6": 880952,
"medianCompletionTimeMs": 303599,
"numUniqueCompletedPlayers": 44,
"typeNumMission": 2,
"image": "https://lh3.googleusercontent.com/E9Ab9t28xyLyZtj9Bn33YXxr8oMYta7wPJhvRqLwMVDr04qrSdMKAxD1tXwJQzqMy47aoNe1Lgh9v3UpGbY",
"portalTitle": ["Lateinischer Spruch","Red Hot. Long Drinks and Short Ribs.","LMU Eingang Amalienstraße","Der verrückte Eismacher","Faces","Thiën Hom"],
"portalTypeNum": [1,2,1,2,1,1],
"portalObjectiveNum": [1,7,1,7,1,1],
"id": 9
},
"geometry": {
"type": "LineString",
"coordinates": [
[
11.579794,48.151809
]
,[
11.579194,48.151202
]
,[
11.578873,48.150732
]
,[
11.578459,48.150446
]
]
}
},

{"type": "Feature",
"properties":{
"time": 1473058228789,
"guid": "45b1fd2ca80542fb873e5d439bd50e49.1c",
"title": "Siegestor München 10 / 24",
"description": "Das Siegestor wurde 1843 bis 1850 aus Kelheimer Kalkstein errichtet. Am 15. Oktober 1850 übergab König Maximilian II. im Namen seines abgedankten Vaters das Siegestor an die Stadt München.",
"author":"DestinationMuc",
"authorTeam": "R",
"ratingE6": 953488,
"medianCompletionTimeMs": 301172,
"numUniqueCompletedPlayers": 44,
"typeNumMission": 2,
"image": "https://lh3.googleusercontent.com/adWRH6ih0WUT5coQaDeBaCzszeT1fUd_RreUSD-cRK_aDgtN-EG3AtJyoD6aqJ7V5FMhToV1T7ONg2iGUUGqpQ",
"portalTitle": ["Maria with child","Konditorei Kaffee Schneller","Optik Bartholomä","Kunstvolle Fassade Schellingstraße","Vernetztes Relief","Hero Mural"],
"portalTypeNum": [1,2,2,1,1,1],
"portalObjectiveNum": [1,7,7,1,1,1],
"id": 9
},
"geometry": {
"type": "LineString",
"coordinates": [
[
11.57791,48.149802
]
,[
11.576923,48.15007
]
,[
11.575862,48.150264
]
,[
11.576165,48.150365
]
]
}
},

{"type": "Feature",
"properties":{
"time": 1473058234388,
"guid": "8340be20f6884e41bb592bfe2a8f39c7.1c",
"title": "Siegestor München 11 / 24",
"description": "Das Siegestor wurde 1843 bis 1850 aus Kelheimer Kalkstein errichtet. Am 15. Oktober 1850 übergab König Maximilian II. im Namen seines abgedankten Vaters das Siegestor an die Stadt München.",
"author":"DestinationMuc",
"authorTeam": "R",
"ratingE6": 953488,
"medianCompletionTimeMs": 488150,
"numUniqueCompletedPlayers": 43,
"typeNumMission": 2,
"image": "https://lh3.googleusercontent.com/BsjCBVgIGwndsx1OcHl0DsI77w4LdBDw-8QPk65Jgznjlrv8uvr75_NBHTcH8jpU1In-pl4bP5gNJxKlxG1lFQ",
"portalTitle": ["Graubart","Georg-Elser-Platz","Tumult","Tumult","Siegel in der Blütenstraße","Apartment"],
"portalTypeNum": [1,1,2,1,1,2],
"portalObjectiveNum": [1,1,7,1,1,7],
"id": 9
},
"geometry": {
"type": "LineString",
"coordinates": [
[
11.57616,48.150702
]
,[
11.576793,48.150982
]
,[
11.576083,48.151896
]
,[
11.57553,48.15198
]
]
}
},

{"type": "Feature",
"properties":{
"time": 1473058246263,
"guid": "f02b24149549453784a97c3a0f9fc5bf.1c",
"title": "Siegestor München 12 / 24",
"description": "Das Siegestor wurde 1843 bis 1850 aus Kelheimer Kalkstein errichtet. Am 15. Oktober 1850 übergab König Maximilian II. im Namen seines abgedankten Vaters das Siegestor an die Stadt München.",
"author":"DestinationMuc",
"authorTeam": "R",
"ratingE6": 1000000,
"medianCompletionTimeMs": 602870,
"numUniqueCompletedPlayers": 44,
"typeNumMission": 2,
"image": "https://lh3.googleusercontent.com/voBPy64pwkJP0JDyg86kMzqXuexY_H0YILE7MurRUgf5dcfBGgETQri128au-tm1L5mLNsFY8uyKNN2vRV27kQ",
"portalTitle": ["Schelling-Salon","Ritterwappen ","Chatterbox","Kontinente","Kunstareal","Pinakothek der Moderne"],
"portalTypeNum": [1,1,1,1,2,1],
"portalObjectiveNum": [1,1,1,1,7,1],
"id": 9
},
"geometry": {
"type": "LineString",
"coordinates": [
[
11.573249,48.151109
]
,[
11.573076,48.15051
]
,[
11.57213,48.149498
]
,[
11.571759,48.149176
]
,[
11.571462,48.147916
]
]
}
},

{"type": "Feature",
"properties":{
"time": 1473058277234,
"guid": "612f08acf31544bda30136717b57aeda.1c",
"title": "Siegestor München 13 / 24",
"description": "Das Siegestor wurde 1843 bis 1850 aus Kelheimer Kalkstein errichtet. Am 15. Oktober 1850 übergab König Maximilian II. im Namen seines abgedankten Vaters das Siegestor an die Stadt München.",
"author":"DestinationMuc",
"authorTeam": "R",
"ratingE6": 928571,
"medianCompletionTimeMs": 319626,
"numUniqueCompletedPlayers": 43,
"typeNumMission": 2,
"image": "https://lh3.googleusercontent.com/NH5iLpIg4rHtIcclHpS7UQZwgPYtphWk1Uj22MWK7NlHnK_XofLX8o5HdONVQSbeeh9YA_boiqHH_hBnWNjX",
"portalTitle": ["Alte Pinakothek","Cubismus An Der Pinakothek","Statue An Der Alten Pinakothek","Streitwagen Kunstwerk","Doppelsäule 23/70","Steinzirkel an der Technischen Uni München"],
"portalTypeNum": [1,1,1,1,1,1],
"portalObjectiveNum": [1,1,1,1,1,1],
"id": 9
},
"geometry": {
"type": "LineString",
"coordinates": [
[
11.570969,48.148001
]
,[
11.570967,48.148877
]
,[
11.570485,48.1489
]
,[
11.569825,48.148847
]
,[
11.569882,48.149192
]
,[
11.56904,48.149308
]
]
}
},

{"type": "Feature",
"properties":{
"time": 1473058294134,
"guid": "867f7c02a7654d77be60b694d71a7274.1c",
"title": "Siegestor München 14 / 24",
"description": "Das Siegestor wurde 1843 bis 1850 aus Kelheimer Kalkstein errichtet. Am 15. Oktober 1850 übergab König Maximilian II. im Namen seines abgedankten Vaters das Siegestor an die Stadt München.",
"author":"DestinationMuc",
"authorTeam": "R",
"ratingE6": 930233,
"medianCompletionTimeMs": 444753,
"numUniqueCompletedPlayers": 43,
"typeNumMission": 2,
"image": "https://lh3.googleusercontent.com/IojBPX3A1p98OJakhhHMKyjhFNZBPVv57gmb8JJXWHK8qzEvSWUhCVb_lVeXg7rG40Ni98W8ctwOS7yYB7qx_A",
"portalTitle": ["Rossebändiger","Man","Eduardo Paolozzi Statue","Steinflamme","Mensa Arcisstraße","Musikhochschule München"],
"portalTypeNum": [1,1,1,1,1,1],
"portalObjectiveNum": [1,1,1,1,1,1],
"id": 9
},
"geometry": {
"type": "LineString",
"coordinates": [
[
11.568799,48.148373
]
,[
11.56841,48.148413
]
,[
11.568669,48.147983
]
,[
11.568114,48.147872
]
,[
11.567649,48.147216
]
,[
11.567362,48.146303
]
]
}
},

{"type": "Feature",
"properties":{
"time": 1473058313572,
"guid": "f245b82129eb47fbaaf716396772a431.1c",
"title": "Siegestor München 15 / 24",
"description": "Das Siegestor wurde 1843 bis 1850 aus Kelheimer Kalkstein errichtet. Am 15. Oktober 1850 übergab König Maximilian II. im Namen seines abgedankten Vaters das Siegestor an die Stadt München.",
"author":"DestinationMuc",
"authorTeam": "R",
"ratingE6": 928571,
"medianCompletionTimeMs": 276072,
"numUniqueCompletedPlayers": 43,
"typeNumMission": 2,
"image": "https://lh3.googleusercontent.com/ouVnABdmHo3UMGQkssecE5xQmz5j453NUCcW1lkYStZj_MmZJfKqAffpqjcosPOyELED6JOGMbultRp_c04I",
"portalTitle": ["Mensch","Alle Hände Nuch Drann ?","Roemer","Little Delphi","Glyptothek","Königsplatz"],
"portalTypeNum": [1,1,1,1,1,2],
"portalObjectiveNum": [1,1,1,1,1,7],
"id": 9
},
"geometry": {
"type": "LineString",
"coordinates": [
[
11.566726,48.146474
]
,[
11.566341,48.146443
]
,[
11.566047,48.146207
]
,[
11.566006,48.146146
]
,[
11.565614,48.146215
]
]
}
},

{"type": "Feature",
"properties":{
"time": 1473058327913,
"guid": "92f355c3390348828b3c318e5d5275e0.1c",
"title": "Siegestor München 16 / 24",
"description": "Das Siegestor wurde 1843 bis 1850 aus Kelheimer Kalkstein errichtet. Am 15. Oktober 1850 übergab König Maximilian II. im Namen seines abgedankten Vaters das Siegestor an die Stadt München.",
"author":"DestinationMuc",
"authorTeam": "R",
"ratingE6": 976744,
"medianCompletionTimeMs": 357938,
"numUniqueCompletedPlayers": 44,
"typeNumMission": 2,
"image": "https://lh3.googleusercontent.com/PHV0IDNGqrrZC3ICMExu1AiEI0COk7_3UOIxGnYdwq9_3VROR5WAADQDJKljJMaPggfFr5TGycsV9veLXrE",
"portalTitle": ["Propyläen","Propyläen","Pavillons Kandinsky","Detail: Lion","Pferdestatue","Kurfürst Maximilian I Von Bayern"],
"portalTypeNum": [1,1,2,1,1,1],
"portalObjectiveNum": [1,1,7,1,1,1],
"id": 9
},
"geometry": {
"type": "LineString",
"coordinates": [
[
11.56438,48.146034
]
,[
11.564063,48.146129
]
,[
11.563734,48.146055
]
,[
11.563279,48.1461
]
,[
11.562996,48.144863
]
]
}
},

{"type": "Feature",
"properties":{
"time": 1473058331557,
"guid": "555828bda9624f37a00580036909eb09.1c",
"title": "Siegestor München 17 / 24",
"description": "Das Siegestor wurde 1843 bis 1850 aus Kelheimer Kalkstein errichtet. Am 15. Oktober 1850 übergab König Maximilian II. im Namen seines abgedankten Vaters das Siegestor an die Stadt München.",
"author":"DestinationMuc",
"authorTeam": "R",
"ratingE6": 953488,
"medianCompletionTimeMs": 259936,
"numUniqueCompletedPlayers": 43,
"typeNumMission": 2,
"image": "https://lh3.googleusercontent.com/bsFSXV7Ngon-EZ0dCu0G8jIhOVPDBa1ntejw0SbCNYwLIHR0dpskqS66WssmR2x-AvrgsaPpACeRHRYKFd1O",
"portalTitle": ["Ioanne Philippo","Man with Goose","Grundrechte I","Grundrechte II","Hier Lernt Man Was","Thomas Wimmer zum Gedenken"],
"portalTypeNum": [1,1,1,1,1,1],
"portalObjectiveNum": [1,1,1,1,1,1],
"id": 9
},
"geometry": {
"type": "LineString",
"coordinates": [
[
11.562887,48.144635
]
,[
11.562845,48.144042
]
,[
11.562538,48.144051
]
,[
11.562297,48.143733
]
,[
11.562028,48.143365
]
,[
11.562356,48.143263
]
]
}
},

{"type": "Feature",
"properties":{
"time": 1473058340778,
"guid": "fb63a536ce37453b99908c4cd00dfd4c.1c",
"title": "Siegestor München 18 / 24",
"description": "Das Siegestor wurde 1843 bis 1850 aus Kelheimer Kalkstein errichtet. Am 15. Oktober 1850 übergab König Maximilian II. im Namen seines abgedankten Vaters das Siegestor an die Stadt München.",
"author":"DestinationMuc",
"authorTeam": "R",
"ratingE6": 952381,
"medianCompletionTimeMs": 465278,
"numUniqueCompletedPlayers": 43,
"typeNumMission": 2,
"image": "https://lh3.googleusercontent.com/4ZJ9qkYkz_3Bk7mlqstCHRKbzvwFSBfGv6C-N-Hjq2XKGZkdmI0r-MxqyZ8N2fuM_bXbCs1Vc-JMyRnNwPSo",
"portalTitle": ["Städtische Meister Und Berufsschule","Luisengymnasium","Bad Guy","Testa Scolpita","Alter Botanischer Garten","Eingang Oberfinanzpräsidium"],
"portalTypeNum": [1,1,1,1,1,1],
"portalObjectiveNum": [1,1,1,1,1,1],
"id": 9
},
"geometry": {
"type": "LineString",
"coordinates": [
[
11.561898,48.143068
]
,[
11.561609,48.142554
]
,[
11.564499,48.142664
]
,[
11.564257,48.142388
]
,[
11.565055,48.142232
]
,[
11.565995,48.142282
]
]
}
},

{"type": "Feature",
"properties":{
"time": 1473058346646,
"guid": "b4aed45dde6f41858ac84a5ee5565b71.1c",
"title": "Siegestor München 19 / 24",
"description": "Das Siegestor wurde 1843 bis 1850 aus Kelheimer Kalkstein errichtet. Am 15. Oktober 1850 übergab König Maximilian II. im Namen seines abgedankten Vaters das Siegestor an die Stadt München.",
"author":"DestinationMuc",
"authorTeam": "R",
"ratingE6": 928571,
"medianCompletionTimeMs": 292910,
"numUniqueCompletedPlayers": 43,
"typeNumMission": 2,
"image": "https://lh3.googleusercontent.com/RmwIU8jTYH-GKfQ1wQcS4nFPyZLJtvdhnrZz5mk2uSOrqNNV6oLq72Q1emqxNFRRUU8fnJ7Sax4RiOEaRB_k",
"portalTitle": ["Relief am Kunstpavillon","Miesbach to Munich Power Trans","Neptunbrunnen","Oberlandesgericht München","Farbenfrohe Parkbank","Umweltmammutbaum"],
"portalTypeNum": [1,1,1,1,1,1],
"portalObjectiveNum": [1,1,1,1,1,1],
"id": 9
},
"geometry": {
"type": "LineString",
"coordinates": [
[
11.565555,48.141769
]
,[
11.565283,48.141857
]
,[
11.565226,48.141233
]
,[
11.563713,48.141226
]
,[
11.563683,48.141481
]
,[
11.563264,48.141708
]
]
}
},

{"type": "Feature",
"properties":{
"time": 1473058350603,
"guid": "7376506d54244a629df5035514010c55.1c",
"title": "Siegestor München 20 / 24",
"description": "Das Siegestor wurde 1843 bis 1850 aus Kelheimer Kalkstein errichtet. Am 15. Oktober 1850 übergab König Maximilian II. im Namen seines abgedankten Vaters das Siegestor an die Stadt München.",
"author":"DestinationMuc",
"authorTeam": "R",
"ratingE6": 928571,
"medianCompletionTimeMs": 381053,
"numUniqueCompletedPlayers": 43,
"typeNumMission": 2,
"image": "https://lh3.googleusercontent.com/FGBHQAbuEcSJeKfL-55j1RD9QkFOo1YYmc8oDG1fWHywoiHph50IREoUjkAQ0mdXkIndaS1wrhRJgq8_LLA",
"portalTitle": ["Baum-Magnolie","Gelbholzbaum","The Cyborg","Hermann Tietzes Kaufhaus","München Hauptbahnhof","Tram 19"],
"portalTypeNum": [1,1,1,1,2,2],
"portalObjectiveNum": [1,1,1,1,7,7],
"id": 9
},
"geometry": {
"type": "LineString",
"coordinates": [
[
11.56287,48.14183
]
,[
11.562297,48.141968
]
,[
11.561096,48.141791
]
,[
11.561383,48.140706
]
]
}
},

{"type": "Feature",
"properties":{
"time": 1473058365244,
"guid": "352725456b1044c49fc77e2e6044e750.1c",
"title": "Siegestor München 21 / 24",
"description": "Das Siegestor wurde 1843 bis 1850 aus Kelheimer Kalkstein errichtet. Am 15. Oktober 1850 übergab König Maximilian II. im Namen seines abgedankten Vaters das Siegestor an die Stadt München.",
"author":"DestinationMuc",
"authorTeam": "R",
"ratingE6": 952381,
"medianCompletionTimeMs": 284642,
"numUniqueCompletedPlayers": 43,
"typeNumMission": 2,
"image": "https://lh3.googleusercontent.com/kHP-V1lVK_O1O_cG7QoSftKelDfEJKdocR6voirdQ9EomZUuVBtXYwb5eLygJiFN9GOBC2uOr8EqbJ0SH9B-",
"portalTitle": ["Karstadt am Hauptbahnhof","Einhornwappen","Historische Fassade 'Der Lehnsherr'","Brunnen in der Schützenstraße","Amor","Mathäser Kino"],
"portalTypeNum": [1,1,1,1,1,1],
"portalObjectiveNum": [1,1,1,1,1,1],
"id": 9
},
"geometry": {
"type": "LineString",
"coordinates": [
[
11.561487,48.140248
]
,[
11.561644,48.139962
]
,[
11.562058,48.140096
]
,[
11.562409,48.139891
]
,[
11.56298,48.139681
]
,[
11.564012,48.139138
]
]
}
},

{"type": "Feature",
"properties":{
"time": 1473058399621,
"guid": "f19cee0e026840508bed98e098f37f12.1c",
"title": "Siegestor München 22 / 24",
"description": "Das Siegestor wurde 1843 bis 1850 aus Kelheimer Kalkstein errichtet. Am 15. Oktober 1850 übergab König Maximilian II. im Namen seines abgedankten Vaters das Siegestor an die Stadt München.",
"author":"DestinationMuc",
"authorTeam": "R",
"ratingE6": 902439,
"medianCompletionTimeMs": 361211,
"numUniqueCompletedPlayers": 43,
"typeNumMission": 2,
"image": "https://lh3.googleusercontent.com/Zh6nd_jfIGqZ2qXc6hp9EO64uX2eQdLrjNjD8RxyUbZgFrAhPp8YlIiRjErwQ_MrXFh89dWoIpNiV7dfELug",
"portalTitle": ["Karlsplatz Stachus","Karlsplatz ","Stachus Fountain","Hofnarr Prangerl","Neuhausertor","Brunnen vereist"],
"portalTypeNum": [1,1,1,1,1,1],
"portalObjectiveNum": [1,1,1,1,1,1],
"id": 9
},
"geometry": {
"type": "LineString",
"coordinates": [
[
11.566211,48.139281
]
,[
11.566291,48.139484
]
,[
11.565815,48.139141
]
,[
11.566595,48.139155
]
,[
11.566778,48.138914
]
,[
11.567037,48.138972
]
]
}
},

{"type": "Feature",
"properties":{
"time": 1473058414528,
"guid": "4af9fad7f4434e1bb4ba756c3e4e5d7e.1c",
"title": "Siegestor München 23 / 24",
"description": "Das Siegestor wurde 1843 bis 1850 aus Kelheimer Kalkstein errichtet. Am 15. Oktober 1850 übergab König Maximilian II. im Namen seines abgedankten Vaters das Siegestor an die Stadt München.",
"author":"DestinationMuc",
"authorTeam": "R",
"ratingE6": 951220,
"medianCompletionTimeMs": 370627,
"numUniqueCompletedPlayers": 42,
"typeNumMission": 2,
"image": "https://lh3.googleusercontent.com/HYq0iBgQ4jR2m5ltGF6Wu4KUkN1Bd0oy2YG_n5KfH4XN5g85WKMBUI-yYt1qyc-YxiuJdlyHb_TNBjdF0Y0",
"portalTitle": ["Oberpollinger","Bürgersaal","Gottfried Keller","Augustiner-Bräu Ausschank","Richard Strauss Brunnen","Landesamt"],
"portalTypeNum": [1,1,1,1,1,1],
"portalObjectiveNum": [1,1,1,1,1,1],
"id": 9
},
"geometry": {
"type": "LineString",
"coordinates": [
[
11.56735,48.138898
]
,[
11.568173,48.138819
]
,[
11.568108,48.138569
]
,[
11.568919,48.138648
]
,[
11.569579,48.138661
]
,[
11.569871,48.138661
]
]
}
},

{"type": "Feature",
"properties":{
"time": 1473058424529,
"guid": "9d09d75ab53644beb3e387395b740307.1c",
"title": "Siegestor München 24 / 24",
"description": "Das Siegestor wurde 1843 bis 1850 aus Kelheimer Kalkstein errichtet. Am 15. Oktober 1850 übergab König Maximilian II. im Namen seines abgedankten Vaters das Siegestor an die Stadt München.",
"author":"DestinationMuc",
"authorTeam": "R",
"ratingE6": 928571,
"medianCompletionTimeMs": 170689,
"numUniqueCompletedPlayers": 43,
"typeNumMission": 2,
"image": "https://lh3.googleusercontent.com/k1InJUVPi3opKhagPXTU0xWRBzCbTBfDOH4SLcPrAeilG9shzdvZl7Xu3h7ZyNN2Z6BhwqGHwsVV_Wrh9P0",
"portalTitle": ["Alte Akademie","The Church of Saint Michael: Sankt Michael","St. Michael's Church","Deutsches Jagd- und Fischereimuseum","Wildschweindenkmal","Der Hirte"],
"portalTypeNum": [1,2,1,2,1,1],
"portalObjectiveNum": [1,7,1,7,1,1],
"id": 9
},
"geometry": {
"type": "LineString",
"coordinates": [
[
11.569775,48.138388
]
,[
11.570281,48.138479
]
,[
11.571463,48.138251
]
,[
11.571798,48.138228
]
]
}
}]}