{"type":"FeatureCollection","features":[{"type": "Feature",
"properties":{
"time": 1473046454297,
"guid": "97b4c67651f745fdb328de7da0f858c7.1c",
"title": "Marienplatz SPIDERWEB 1 / 12",
"description": "Such link. Very hack. Wow.",
"author":"michaelkah",
"authorTeam": "E",
"ratingE6": 760563,
"medianCompletionTimeMs": 672375,
"numUniqueCompletedPlayers": 53,
"typeNumMission": 1,
"image": "https://lh3.googleusercontent.com/qehMD3rwh_G9rGPx-88cmirJlWaXBcuBvOair42l7qT7-dEy18olYJ4l4Um-Vs_qSniEUZ6vE_tg5p15_LjeIw",
"portalTitle": ["Munich Golden Madonna Statue","Fischbrunnen","Rathaus","Marienplatz - Glockenspiel","Dragon","Moriskentänzer"],
"portalTypeNum": [1,1,1,1,1,1],
"portalObjectiveNum": [3,3,3,3,3,3],
"id": 6
},
"geometry": {
"type": "LineString",
"coordinates": [
[
11.575486,48.13722
]
,[
11.576208,48.137238
]
,[
11.57594,48.137372
]
,[
11.575546,48.137437
]
,[
11.575115,48.137532
]
,[
11.574875,48.137357
]
]
}
},

{"type": "Feature",
"properties":{
"time": 1473046464226,
"guid": "320e07bd71244e6bab63e575c538fa4f.1c",
"title": "Marienplatz SPIDERWEB 2 / 12",
"description": "Such link. Very hack. Wow.",
"author":"michaelkah",
"authorTeam": "E",
"ratingE6": 900000,
"medianCompletionTimeMs": 221878,
"numUniqueCompletedPlayers": 55,
"typeNumMission": 1,
"image": "https://lh3.googleusercontent.com/uMdfh4iGK9L7nbzGKjOvNNhuRaUJI9ud0UVdoUynSBbYknf80TFmCgVIJG2a-5Vv6yAv21_Fne8XX414z9sinA",
"portalTitle": ["Munich Golden Madonna Statue","Fischbrunnen","Rathaus","Marienplatz - Glockenspiel","Dragon","Moriskentänzer"],
"portalTypeNum": [1,1,1,1,1,1],
"portalObjectiveNum": [1,1,1,1,1,1],
"id": 6
},
"geometry": {
"type": "LineString",
"coordinates": [
[
11.575486,48.13722
]
,[
11.576208,48.137238
]
,[
11.57594,48.137372
]
,[
11.575546,48.137437
]
,[
11.575115,48.137532
]
,[
11.574875,48.137357
]
]
}
},

{"type": "Feature",
"properties":{
"time": 1473046468281,
"guid": "7a3b4eaaf0b44c1d9dbd3f66a1600d0c.1c",
"title": "Marienplatz SPIDERWEB 3 / 12",
"description": "Such link. Very hack. Wow.",
"author":"michaelkah",
"authorTeam": "E",
"ratingE6": 820000,
"medianCompletionTimeMs": 595184,
"numUniqueCompletedPlayers": 51,
"typeNumMission": 1,
"image": "https://lh3.googleusercontent.com/fbHbuXbP1rxmD6vLrPnh8rxcR_G6b10ey1Qy80OvMoYEvrOzGhUzndfxqZmG28HiglpWa3yTApANHvLJ5toi",
"portalTitle": ["Munich Golden Madonna Statue","Fischbrunnen","Rathaus","Marienplatz - Glockenspiel","Dragon","Moriskentänzer"],
"portalTypeNum": [1,1,1,1,1,1],
"portalObjectiveNum": [3,3,3,3,3,3],
"id": 6
},
"geometry": {
"type": "LineString",
"coordinates": [
[
11.575486,48.13722
]
,[
11.576208,48.137238
]
,[
11.57594,48.137372
]
,[
11.575546,48.137437
]
,[
11.575115,48.137532
]
,[
11.574875,48.137357
]
]
}
},

{"type": "Feature",
"properties":{
"time": 1473046472319,
"guid": "8ed82fe8c9e34e83accacedad0203ef2.1c",
"title": "Marienplatz SPIDERWEB 4 / 12",
"description": "Such link. Very hack. Wow.",
"author":"michaelkah",
"authorTeam": "E",
"ratingE6": 775510,
"medianCompletionTimeMs": 832685,
"numUniqueCompletedPlayers": 50,
"typeNumMission": 1,
"image": "https://lh3.googleusercontent.com/RimgjzZ0aweFAuqH_9eOtOHgYBpw0UEFdy7PN-gOAWCVW0E0K2yCf8DpdgyHDPQO7v_FvxyQevy9iAfQo7-xZw",
"portalTitle": ["Munich Golden Madonna Statue","Fischbrunnen","Rathaus","Marienplatz - Glockenspiel","Dragon","Moriskentänzer"],
"portalTypeNum": [1,1,1,1,1,1],
"portalObjectiveNum": [3,3,3,3,3,3],
"id": 6
},
"geometry": {
"type": "LineString",
"coordinates": [
[
11.575486,48.13722
]
,[
11.576208,48.137238
]
,[
11.57594,48.137372
]
,[
11.575546,48.137437
]
,[
11.575115,48.137532
]
,[
11.574875,48.137357
]
]
}
},

{"type": "Feature",
"properties":{
"time": 1473046478562,
"guid": "b135e66d6ab6435ea66b06429b54ade3.1c",
"title": "Marienplatz SPIDERWEB 5 / 12",
"description": "Such link. Very hack. Wow.",
"author":"michaelkah",
"authorTeam": "E",
"ratingE6": 909091,
"medianCompletionTimeMs": 232707,
"numUniqueCompletedPlayers": 56,
"typeNumMission": 1,
"image": "https://lh3.googleusercontent.com/qhQQe-pfByxfxOov0LT1SUSC__bEhZog71IdQ462heLNjrAgk70ixKL4Jf1sTc1JmSVH9UT2buUoTOr-m_JG",
"portalTitle": ["Munich Golden Madonna Statue","Fischbrunnen","Rathaus","Marienplatz - Glockenspiel","Dragon","Moriskentänzer"],
"portalTypeNum": [1,1,1,1,1,1],
"portalObjectiveNum": [1,1,1,1,1,1],
"id": 6
},
"geometry": {
"type": "LineString",
"coordinates": [
[
11.575486,48.13722
]
,[
11.576208,48.137238
]
,[
11.57594,48.137372
]
,[
11.575546,48.137437
]
,[
11.575115,48.137532
]
,[
11.574875,48.137357
]
]
}
},

{"type": "Feature",
"properties":{
"time": 1473046484378,
"guid": "df4e409e0b144096bf753297fdb547ba.1c",
"title": "Marienplatz SPIDERWEB 6 / 12",
"description": "Such link. Very hack. Wow.",
"author":"michaelkah",
"authorTeam": "E",
"ratingE6": 775510,
"medianCompletionTimeMs": 662276,
"numUniqueCompletedPlayers": 50,
"typeNumMission": 1,
"image": "https://lh3.googleusercontent.com/x17rBZjhLZ6i7Y_K60i7CKCEuZoYMxq5LrnNkVjTk0MEaD1sc4FKtQlDByAqR32KsGr98-JHR_QAUXktTU7-xw",
"portalTitle": ["Munich Golden Madonna Statue","Fischbrunnen","Rathaus","Marienplatz - Glockenspiel","Dragon","Moriskentänzer"],
"portalTypeNum": [1,1,1,1,1,1],
"portalObjectiveNum": [3,3,3,3,3,3],
"id": 6
},
"geometry": {
"type": "LineString",
"coordinates": [
[
11.575486,48.13722
]
,[
11.576208,48.137238
]
,[
11.57594,48.137372
]
,[
11.575546,48.137437
]
,[
11.575115,48.137532
]
,[
11.574875,48.137357
]
]
}
},

{"type": "Feature",
"properties":{
"time": 1473046489237,
"guid": "5713b3d98a8e4d38920306a7803fbf80.1c",
"title": "Marienplatz SPIDERWEB 7 / 12",
"description": "Such link. Very hack. Wow.",
"author":"michaelkah",
"authorTeam": "E",
"ratingE6": 790698,
"medianCompletionTimeMs": 715452,
"numUniqueCompletedPlayers": 44,
"typeNumMission": 1,
"image": "https://lh3.googleusercontent.com/KmEmFWh_HtxSJbdl97ysm7HDr03gWUR445rTFrJBmkw2XCeSFNLN0Gu7bBzF4gxmJkMZhelfOV4hYGY1wM4",
"portalTitle": ["Munich Golden Madonna Statue","Fischbrunnen","Rathaus","Marienplatz - Glockenspiel","Dragon","Moriskentänzer"],
"portalTypeNum": [1,1,1,1,1,1],
"portalObjectiveNum": [3,3,3,3,3,3],
"id": 6
},
"geometry": {
"type": "LineString",
"coordinates": [
[
11.575486,48.13722
]
,[
11.576208,48.137238
]
,[
11.57594,48.137372
]
,[
11.575546,48.137437
]
,[
11.575115,48.137532
]
,[
11.574875,48.137357
]
]
}
},

{"type": "Feature",
"properties":{
"time": 1473046495362,
"guid": "f4b7e0b86e954def9e3e9d97e5ddb4e6.1c",
"title": "Marienplatz SPIDERWEB 8 / 12",
"description": "Such link. Very hack. Wow.",
"author":"michaelkah",
"authorTeam": "E",
"ratingE6": 902439,
"medianCompletionTimeMs": 183128,
"numUniqueCompletedPlayers": 47,
"typeNumMission": 1,
"image": "https://lh3.googleusercontent.com/SqlDAokC0NiTnk7m0c3NnObcv3myDOwJVbLtrSVbIm5iQwDW_BtSviqaTNaRRvyQY2oZkayq6LSsXUTGnZpClw",
"portalTitle": ["Munich Golden Madonna Statue","Fischbrunnen","Rathaus","Marienplatz - Glockenspiel","Dragon","Moriskentänzer"],
"portalTypeNum": [1,1,1,1,1,1],
"portalObjectiveNum": [1,1,1,1,1,1],
"id": 6
},
"geometry": {
"type": "LineString",
"coordinates": [
[
11.575486,48.13722
]
,[
11.576208,48.137238
]
,[
11.57594,48.137372
]
,[
11.575546,48.137437
]
,[
11.575115,48.137532
]
,[
11.574875,48.137357
]
]
}
},

{"type": "Feature",
"properties":{
"time": 1473046500518,
"guid": "1531367d2a334be3b104b6aac4a313b1.1c",
"title": "Marienplatz SPIDERWEB 9 / 12",
"description": "Such link. Very hack. Wow.",
"author":"michaelkah",
"authorTeam": "E",
"ratingE6": 707317,
"medianCompletionTimeMs": 713139,
"numUniqueCompletedPlayers": 43,
"typeNumMission": 1,
"image": "https://lh3.googleusercontent.com/BtJOtx8AIoi964rEAycD4wWSWmKyB6kj0Bz3WZ0_0KEJ_J0CT9ijBqZ1KRZtIljiu45KR0aRz1YHTz2fmgsC",
"portalTitle": ["Munich Golden Madonna Statue","Fischbrunnen","Rathaus","Marienplatz - Glockenspiel","Dragon","Moriskentänzer"],
"portalTypeNum": [1,1,1,1,1,1],
"portalObjectiveNum": [3,3,3,3,3,3],
"id": 6
},
"geometry": {
"type": "LineString",
"coordinates": [
[
11.575486,48.13722
]
,[
11.576208,48.137238
]
,[
11.57594,48.137372
]
,[
11.575546,48.137437
]
,[
11.575115,48.137532
]
,[
11.574875,48.137357
]
]
}
},

{"type": "Feature",
"properties":{
"time": 1473046503541,
"guid": "c4bf7e5122114995b8a1a661999046dd.1c",
"title": "Marienplatz SPIDERWEB 10 / 12",
"description": "Such link. Very hack. Wow.",
"author":"michaelkah",
"authorTeam": "E",
"ratingE6": 756098,
"medianCompletionTimeMs": 691535,
"numUniqueCompletedPlayers": 44,
"typeNumMission": 1,
"image": "https://lh3.googleusercontent.com/AhGAfbdfY-LCRb-5b_3jL7Bxj19Uc2HXppRHBAbJBv6yJhnAaLcU7n-5GA4vfaoNH0AP3qippdv3qHGQqZRC",
"portalTitle": ["Munich Golden Madonna Statue","Fischbrunnen","Rathaus","Marienplatz - Glockenspiel","Dragon","Moriskentänzer"],
"portalTypeNum": [1,1,1,1,1,1],
"portalObjectiveNum": [3,3,3,3,3,3],
"id": 6
},
"geometry": {
"type": "LineString",
"coordinates": [
[
11.575486,48.13722
]
,[
11.576208,48.137238
]
,[
11.57594,48.137372
]
,[
11.575546,48.137437
]
,[
11.575115,48.137532
]
,[
11.574875,48.137357
]
]
}
},

{"type": "Feature",
"properties":{
"time": 1473046506374,
"guid": "d4e39819b1f14de087b4226c19f2a16c.1c",
"title": "Marienplatz SPIDERWEB 11 / 12",
"description": "Such link. Very hack. Wow.",
"author":"michaelkah",
"authorTeam": "E",
"ratingE6": 809524,
"medianCompletionTimeMs": 178549,
"numUniqueCompletedPlayers": 44,
"typeNumMission": 1,
"image": "https://lh3.googleusercontent.com/D5NPkeps2Py_Rb1WMUudGbH9ttPcBl5ypHEWrpxa2_wXcUcP9uxSOh2n6cPnz825YbUOoHuWbuiT0RtCrSVR",
"portalTitle": ["Munich Golden Madonna Statue","Fischbrunnen","Rathaus","Marienplatz - Glockenspiel","Dragon","Moriskentänzer"],
"portalTypeNum": [1,1,1,1,1,1],
"portalObjectiveNum": [1,1,1,1,1,1],
"id": 6
},
"geometry": {
"type": "LineString",
"coordinates": [
[
11.575486,48.13722
]
,[
11.576208,48.137238
]
,[
11.57594,48.137372
]
,[
11.575546,48.137437
]
,[
11.575115,48.137532
]
,[
11.574875,48.137357
]
]
}
},

{"type": "Feature",
"properties":{
"time": 1473046508999,
"guid": "eebcec5162ff47689db76dc1b7c92065.1c",
"title": "Marienplatz SPIDERWEB 12 / 12",
"description": "Such link. Very hack. Wow.",
"author":"michaelkah",
"authorTeam": "E",
"ratingE6": 829268,
"medianCompletionTimeMs": 485626,
"numUniqueCompletedPlayers": 44,
"typeNumMission": 1,
"image": "https://lh3.googleusercontent.com/_-AsEUD-WXrsL1ioRhtKrWXtQGkCbKzooeq5V5WtE8tLhsm7BOBe9SYMbbECKFabHdmmyi6m7AYP5z-duXM",
"portalTitle": ["Munich Golden Madonna Statue","Fischbrunnen","Rathaus","Marienplatz - Glockenspiel","Dragon","Moriskentänzer"],
"portalTypeNum": [1,1,1,1,1,1],
"portalObjectiveNum": [3,3,3,3,3,3],
"id": 6
},
"geometry": {
"type": "LineString",
"coordinates": [
[
11.575486,48.13722
]
,[
11.576208,48.137238
]
,[
11.57594,48.137372
]
,[
11.575546,48.137437
]
,[
11.575115,48.137532
]
,[
11.574875,48.137357
]
]
}
}]}