{"type": "FeatureCollection","features": [{"type": "Feature","properties": {"mission":1},"geometry":{"type": "Point","coordinates":[
11.342601,47.995636
]
}},{"type": "Feature","properties": {"mission":2},"geometry":{"type": "Point","coordinates":[
11.340848,47.99468
]
}},{"type": "Feature","properties": {"mission":3},"geometry":{"type": "Point","coordinates":[
11.338719,47.991976
]
}},{"type": "Feature","properties": {"mission":4},"geometry":{"type": "Point","coordinates":[
11.340045,47.996511
]
}},{"type": "Feature","properties": {"mission":5},"geometry":{"type": "Point","coordinates":[
11.33627,47.997541
]
}},{"type": "Feature","properties": {"mission":6},"geometry":{"type": "Point","coordinates":[
11.340783,48.000618
]
}},{"type": "Feature","properties": {"mission":7},"geometry":{"type": "Point","coordinates":[
11.338543,47.998238
]
}},{"type": "Feature","properties": {"mission":8},"geometry":{"type": "Point","coordinates":[
11.340968,47.998362
]
}},{"type": "Feature","properties": {"mission":9},"geometry":{"type": "Point","coordinates":[
11.342001,47.997861
]
}},{"type": "Feature","properties": {"mission":10},"geometry":{"type": "Point","coordinates":[
11.342668,48.000301
]
}},{"type": "Feature","properties": {"mission":11},"geometry":{"type": "Point","coordinates":[
11.34583,48.000725
]
}},{"type": "Feature","properties": {"mission":12},"geometry":{"type": "Point","coordinates":[
11.351702,47.999521
]
}}]}