{"type": "FeatureCollection","features": [{"type": "Feature","properties": {"mission":1},"geometry":{"type": "Point","coordinates":[
11.574875,48.137357
]
}},{"type": "Feature","properties": {"mission":2},"geometry":{"type": "Point","coordinates":[
11.575896,48.13673
]
}},{"type": "Feature","properties": {"mission":3},"geometry":{"type": "Point","coordinates":[
11.575,48.137777
]
}},{"type": "Feature","properties": {"mission":4},"geometry":{"type": "Point","coordinates":[
11.573349,48.138772
]
}},{"type": "Feature","properties": {"mission":5},"geometry":{"type": "Point","coordinates":[
11.576478,48.136794
]
}},{"type": "Feature","properties": {"mission":6},"geometry":{"type": "Point","coordinates":[
11.57874,48.137889
]
}},{"type": "Feature","properties": {"mission":7},"geometry":{"type": "Point","coordinates":[
11.580923,48.134895
]
}},{"type": "Feature","properties": {"mission":8},"geometry":{"type": "Point","coordinates":[
11.576514,48.134955
]
}},{"type": "Feature","properties": {"mission":9},"geometry":{"type": "Point","coordinates":[
11.573483,48.134409
]
}},{"type": "Feature","properties": {"mission":10},"geometry":{"type": "Point","coordinates":[
11.56952,48.134881
]
}},{"type": "Feature","properties": {"mission":11},"geometry":{"type": "Point","coordinates":[
11.568423,48.134483
]
}},{"type": "Feature","properties": {"mission":12},"geometry":{"type": "Point","coordinates":[
11.567221,48.139173
]
}},{"type": "Feature","properties": {"mission":13},"geometry":{"type": "Point","coordinates":[
11.563683,48.141481
]
}},{"type": "Feature","properties": {"mission":14},"geometry":{"type": "Point","coordinates":[
11.563279,48.1461
]
}},{"type": "Feature","properties": {"mission":15},"geometry":{"type": "Point","coordinates":[
11.570472,48.14751
]
}},{"type": "Feature","properties": {"mission":16},"geometry":{"type": "Point","coordinates":[
11.58126,48.149196
]
}},{"type": "Feature","properties": {"mission":17},"geometry":{"type": "Point","coordinates":[
11.577384,48.14177
]
}},{"type": "Feature","properties": {"mission":18},"geometry":{"type": "Point","coordinates":[
11.57684,48.142488
]
}},{"type": "Feature","properties": {"mission":19},"geometry":{"type": "Point","coordinates":[
11.576466,48.140351
]
}},{"type": "Feature","properties": {"mission":20},"geometry":{"type": "Point","coordinates":[
11.578668,48.143194
]
}},{"type": "Feature","properties": {"mission":21},"geometry":{"type": "Point","coordinates":[
11.587689,48.143404
]
}},{"type": "Feature","properties": {"mission":22},"geometry":{"type": "Point","coordinates":[
11.590989,48.14234
]
}},{"type": "Feature","properties": {"mission":23},"geometry":{"type": "Point","coordinates":[
11.602038,48.140429
]
}},{"type": "Feature","properties": {"mission":24},"geometry":{"type": "Point","coordinates":[
11.583961,48.129914
]
}}]}