{"type": "FeatureCollection","features": [{"type": "Feature","properties": {"mission":1},"geometry":{"type": "Point","coordinates":[
11.389033,48.134114
]
}},{"type": "Feature","properties": {"mission":2},"geometry":{"type": "Point","coordinates":[
11.382966,48.137258
]
}},{"type": "Feature","properties": {"mission":3},"geometry":{"type": "Point","coordinates":[
11.376835,48.136122
]
}},{"type": "Feature","properties": {"mission":4},"geometry":{"type": "Point","coordinates":[
11.366346,48.137282
]
}},{"type": "Feature","properties": {"mission":5},"geometry":{"type": "Point","coordinates":[
11.359909,48.138192
]
}},{"type": "Feature","properties": {"mission":6},"geometry":{"type": "Point","coordinates":[
11.352704,48.134732
]
}},{"type": "Feature","properties": {"mission":7},"geometry":{"type": "Point","coordinates":[
11.349653,48.127925
]
}},{"type": "Feature","properties": {"mission":8},"geometry":{"type": "Point","coordinates":[
11.361102,48.134381
]
}},{"type": "Feature","properties": {"mission":9},"geometry":{"type": "Point","coordinates":[
11.363052,48.132079
]
}},{"type": "Feature","properties": {"mission":10},"geometry":{"type": "Point","coordinates":[
11.372077,48.129241
]
}},{"type": "Feature","properties": {"mission":11},"geometry":{"type": "Point","coordinates":[
11.366475,48.124812
]
}},{"type": "Feature","properties": {"mission":12},"geometry":{"type": "Point","coordinates":[
11.3463,48.150061
]
}},{"type": "Feature","properties": {"mission":13},"geometry":{"type": "Point","coordinates":[
11.34576,48.169959
]
}},{"type": "Feature","properties": {"mission":14},"geometry":{"type": "Point","coordinates":[
11.351035,48.171564
]
}},{"type": "Feature","properties": {"mission":15},"geometry":{"type": "Point","coordinates":[
11.353265,48.170674
]
}},{"type": "Feature","properties": {"mission":16},"geometry":{"type": "Point","coordinates":[
11.350067,48.178913
]
}},{"type": "Feature","properties": {"mission":17},"geometry":{"type": "Point","coordinates":[
11.358125,48.174297
]
}},{"type": "Feature","properties": {"mission":18},"geometry":{"type": "Point","coordinates":[
11.370796,48.179077
]
}},{"type": "Feature","properties": {"mission":19},"geometry":{"type": "Point","coordinates":[
11.387248,48.189567
]
}},{"type": "Feature","properties": {"mission":20},"geometry":{"type": "Point","coordinates":[
11.372957,48.194961
]
}},{"type": "Feature","properties": {"mission":21},"geometry":{"type": "Point","coordinates":[
11.370761,48.19385
]
}},{"type": "Feature","properties": {"mission":22},"geometry":{"type": "Point","coordinates":[
11.368717,48.193697
]
}},{"type": "Feature","properties": {"mission":23},"geometry":{"type": "Point","coordinates":[
11.348208,48.214356
]
}},{"type": "Feature","properties": {"mission":24},"geometry":{"type": "Point","coordinates":[
11.348061,48.215193
]
}},{"type": "Feature","properties": {"mission":25},"geometry":{"type": "Point","coordinates":[
11.332175,48.209832
]
}},{"type": "Feature","properties": {"mission":26},"geometry":{"type": "Point","coordinates":[
11.32728,48.206872
]
}},{"type": "Feature","properties": {"mission":27},"geometry":{"type": "Point","coordinates":[
11.294633,48.211456
]
}},{"type": "Feature","properties": {"mission":28},"geometry":{"type": "Point","coordinates":[
11.26756,48.21664
]
}},{"type": "Feature","properties": {"mission":29},"geometry":{"type": "Point","coordinates":[
11.258292,48.218937
]
}},{"type": "Feature","properties": {"mission":30},"geometry":{"type": "Point","coordinates":[
11.249073,48.193202
]
}},{"type": "Feature","properties": {"mission":31},"geometry":{"type": "Point","coordinates":[
11.254371,48.181101
]
}},{"type": "Feature","properties": {"mission":32},"geometry":{"type": "Point","coordinates":[
11.257933,48.178557
]
}},{"type": "Feature","properties": {"mission":33},"geometry":{"type": "Point","coordinates":[
11.254711,48.178673
]
}},{"type": "Feature","properties": {"mission":34},"geometry":{"type": "Point","coordinates":[
11.256024,48.177312
]
}},{"type": "Feature","properties": {"mission":35},"geometry":{"type": "Point","coordinates":[
11.254572,48.176655
]
}},{"type": "Feature","properties": {"mission":36},"geometry":{"type": "Point","coordinates":[
11.245264,48.175873
]
}},{"type": "Feature","properties": {"mission":37},"geometry":{"type": "Point","coordinates":[
11.249703,48.171251
]
}},{"type": "Feature","properties": {"mission":38},"geometry":{"type": "Point","coordinates":[
11.248806,48.169421
]
}},{"type": "Feature","properties": {"mission":39},"geometry":{"type": "Point","coordinates":[
11.253528,48.17492
]
}},{"type": "Feature","properties": {"mission":40},"geometry":{"type": "Point","coordinates":[
11.257693,48.175552
]
}},{"type": "Feature","properties": {"mission":41},"geometry":{"type": "Point","coordinates":[
11.226205,48.163574
]
}},{"type": "Feature","properties": {"mission":42},"geometry":{"type": "Point","coordinates":[
11.162777,48.123334
]
}},{"type": "Feature","properties": {"mission":43},"geometry":{"type": "Point","coordinates":[
11.156298,48.121361
]
}},{"type": "Feature","properties": {"mission":44},"geometry":{"type": "Point","coordinates":[
11.084227,48.109452
]
}},{"type": "Feature","properties": {"mission":45},"geometry":{"type": "Point","coordinates":[
11.086249,48.108464
]
}},{"type": "Feature","properties": {"mission":46},"geometry":{"type": "Point","coordinates":[
11.026807,48.123576
]
}},{"type": "Feature","properties": {"mission":47},"geometry":{"type": "Point","coordinates":[
11.044843,48.096492
]
}},{"type": "Feature","properties": {"mission":48},"geometry":{"type": "Point","coordinates":[
11.042934,48.095287
]
}}]}