{"type":"FeatureCollection","features":[{"type": "Feature",
"properties":{
"time": 1473045512230,
"guid": "3350fbb1647c4ec2ba7aeb672033b17e.1c",
"title": "Munich city walls 01 / 24",
"description": "In former times Munich had two city walls. Later the town was transformed into a fortress.  This mission series explores the remnants and traces of that time. Please read the portal texts.",
"author":"eeepee",
"authorTeam": "R",
"ratingE6": 936170,
"medianCompletionTimeMs": 594919,
"numUniqueCompletedPlayers": 46,
"typeNumMission": 1,
"image": "https://lh3.googleusercontent.com/gF7AwidNy8Wrw4XT8xzURNde4_f5K3IDvbI06m8F9Huh4ntD3k1ZMAHgedK98fFRBIA_jm8pzgaERQ8EnUw",
"portalTitle": ["Altes Rathaus","09.11.1938","Kunstarkaden","Münchner Zeitkapsel 2013 - 2113","Zerwirkgewölbe","Wandbild Platz Hotel"],
"portalTypeNum": [1,1,1,1,1,1],
"portalObjectiveNum": [1,1,1,1,1,1],
"id": 5
},
"geometry": {
"type": "LineString",
"coordinates": [
[
11.576878,48.136661
]
,[
11.577323,48.136922
]
,[
11.577547,48.137126
]
,[
11.577754,48.137284
]
,[
11.578311,48.137576
]
,[
11.57874,48.137889
]
]
}
},

{"type": "Feature",
"properties":{
"time": 1473045531173,
"guid": "4b99cef8265f4c5bbe590b48bdf87bf9.1c",
"title": "Munich city walls 02 / 24",
"description": "The first missions follow the traces of the first wall ring, later named 'Innere Stadt' (inner town). This area is called 'Graggenau' (derived from crow, raven)Mission series starts at old city hall",
"author":"eeepee",
"authorTeam": "R",
"ratingE6": 952381,
"medianCompletionTimeMs": 279592,
"numUniqueCompletedPlayers": 44,
"typeNumMission": 1,
"image": "https://lh3.googleusercontent.com/wu6Q4jtvR-FfnA0LITGxb-tqWYZFeshECfYtEnYBNxWm31gvoZ7a-tpx2s6yG_5JJSebgO1f_hcI-lUoBgRI",
"portalTitle": ["Hof","Hofpfisterei Alte Pfistermühle","Ludwig der Bayer","Brunnen im Alten Hof","Alter Hof","Google Munich"],
"portalTypeNum": [1,1,1,1,1,1],
"portalObjectiveNum": [1,1,1,1,1,1],
"id": 5
},
"geometry": {
"type": "LineString",
"coordinates": [
[
11.578955,48.138152
]
,[
11.579417,48.138559
]
,[
11.578346,48.138582
]
,[
11.578257,48.138244
]
,[
11.577865,48.138225
]
,[
11.577653,48.138562
]
]
}
},

{"type": "Feature",
"properties":{
"time": 1473045544479,
"guid": "446945eeec9c492a91e77b587c7bdd85.1c",
"title": "Munich city walls 03 / 24",
"description": "This mission covers the area of the two northern gates of the first wall ring. In former times this area looked different than today and was full of houses.Mission series starts at old city hall.",
"author":"eeepee",
"authorTeam": "R",
"ratingE6": 902439,
"medianCompletionTimeMs": 533748,
"numUniqueCompletedPlayers": 44,
"typeNumMission": 1,
"image": "https://lh3.googleusercontent.com/yVui0SQdkWtseqkyWpf1Vj0mn5GLgD2G8qKbl61YyLSsDRF5oFKr8ChvsM4HQY2UnAZKWrOFtjAPDY61LqF59A",
"portalTitle": ["Alois Dallmayr","Historische Fassade mit Marienfigur","Balloon","Eingang Erzbischöfliches Ordinariat","Treppe","Dancer","Map 4 The Blind Of Munich"],
"portalTypeNum": [1,1,1,1,1,1,1],
"portalObjectiveNum": [1,1,1,1,1,1,1],
"id": 5
},
"geometry": {
"type": "LineString",
"coordinates": [
[
11.577259,48.13847
]
,[
11.577399,48.138974
]
,[
11.576865,48.138717
]
,[
11.576757,48.139083
]
,[
11.576098,48.139062
]
,[
11.575486,48.13895
]
,[
11.572769,48.138663
]
]
}
},

{"type": "Feature",
"properties":{
"time": 1473045559847,
"guid": "d8ee2834c856446a8725b945a3a2d060.1c",
"title": "Munich city walls 04 / 24",
"description": "We've entered now the area of 'Kreuzviertel' (cross quarter) named after the small street 'Kreuzgasse'. We will visit the area of the western gate. Mission series starts at old city hall.",
"author":"eeepee",
"authorTeam": "R",
"ratingE6": 926829,
"medianCompletionTimeMs": 399715,
"numUniqueCompletedPlayers": 44,
"typeNumMission": 1,
"image": "https://lh3.googleusercontent.com/4a44jaKdgR-RFTDN7v8okM06BedE5OaxL4GmuFtx2PVqUUcDEZtCtVs49DEwAmt2HmbRRhb4JLcSxwY7d3g",
"portalTitle": ["Kunstvoller Eingang","Big Fish Sculpture ","Wildschweindenkmal","Der Hirte","Antike Facade","Dr. Fritz Gerlich Gedenktafel"],
"portalTypeNum": [1,1,1,1,1,1],
"portalObjectiveNum": [1,1,1,1,1,1],
"id": 5
},
"geometry": {
"type": "LineString",
"coordinates": [
[
11.57184,48.138735
]
,[
11.571706,48.138403
]
,[
11.571463,48.138251
]
,[
11.571798,48.138228
]
,[
11.570623,48.137402
]
,[
11.571497,48.137
]
]
}
},

{"type": "Feature",
"properties":{
"time": 1473045579158,
"guid": "66e4ea59b35f4319996f4ff7ea84dff4.1c",
"title": "Munich city walls 05 / 24",
"description": "We're now in the area of the 'Hackenviertel' (name comes from 'Hag' , that's a fenced area). We will visit the area of the south gate and the cattle market. Mission series starts at old city hall.",
"author":"eeepee",
"authorTeam": "R",
"ratingE6": 900000,
"medianCompletionTimeMs": 732954,
"numUniqueCompletedPlayers": 44,
"typeNumMission": 1,
"image": "https://lh3.googleusercontent.com/k-E5_vRQKqXMyydLQ_MgO8mH0HROmgrkHFFGhATRMhoRFIE5C5MzxPSXaYCx5YD_fu1tCJzfljlNy-ocu3mh",
"portalTitle": ["Eingang Hofstatt","Zum Rappeneck","Spanisches Fruchthaus ","Rindermarkt","Löwenturm","Gate of Steel","Langweiliger Brunnen"],
"portalTypeNum": [1,1,1,1,1,1,1],
"portalObjectiveNum": [1,1,1,1,1,1,1],
"id": 5
},
"geometry": {
"type": "LineString",
"coordinates": [
[
11.571952,48.136638
]
,[
11.572578,48.136304
]
,[
11.573492,48.136153
]
,[
11.573954,48.136177
]
,[
11.574049,48.135874
]
,[
11.575075,48.135701
]
,[
11.576012,48.135505
]
]
}
},

{"type": "Feature",
"properties":{
"time": 1473045591435,
"guid": "3c62bc417a5b4d8486e6d6000c58ed07.1c",
"title": "Munich city walls 06 / 24",
"description": "We're now in the 'Angerviertel' (meadow quarter) and have completed nearly our first round. We will now visit the 'Tal' - the area of the first town expansion.Mission series starts at old city hall.",
"author":"eeepee",
"authorTeam": "R",
"ratingE6": 829268,
"medianCompletionTimeMs": 434317,
"numUniqueCompletedPlayers": 44,
"typeNumMission": 1,
"image": "https://lh3.googleusercontent.com/z7slL7W7U-JfQKlJGdqhOQtLxZc_lEr_2x5vxzOYOXPAtnXNIdP-4PySlh6viQtV9Y847x64oeNjLhB5LTTa",
"portalTitle": ["Elise-Aulinger-Brunnen","Inside the Church of the Holy ","Münchner Detektiv","Paulanerschwein","Brunnen","Figur Im Tal"],
"portalTypeNum": [1,1,1,1,1,1],
"portalObjectiveNum": [1,1,1,1,1,1],
"id": 5
},
"geometry": {
"type": "LineString",
"coordinates": [
[
11.576848,48.136013
]
,[
11.577331,48.13611
]
,[
11.578049,48.136143
]
,[
11.578439,48.136034
]
,[
11.579062,48.136142
]
,[
11.579361,48.136166
]
]
}
},

{"type": "Feature",
"properties":{
"time": 1473045600052,
"guid": "1da964bd108240b0b785f14924b735c2.1c",
"title": "Munich city walls 07 / 24",
"description": "The 'Tal' was expanded further eastwards and we will now visit the eastern and most complete gate of the second wall ring named 'Isartor'.Mission series starts at old city hall.",
"author":"eeepee",
"authorTeam": "R",
"ratingE6": 886364,
"medianCompletionTimeMs": 447244,
"numUniqueCompletedPlayers": 47,
"typeNumMission": 1,
"image": "https://lh3.googleusercontent.com/2eCD2KJZEFb0zVuiC8lQL00dFIuHqihcYxaIZCqgxnIfLMqtAkL2BmxnZOwH_IcFv4Ps141lXIrs62vxRoA",
"portalTitle": ["Effective Marketing","Riesenlöffel Maggi","Torbräu","Isartor","Fundamente Zwingermauer 1430-1472","Die öffentliche Rose"],
"portalTypeNum": [1,1,1,1,1,1],
"portalObjectiveNum": [1,1,1,1,1,1],
"id": 5
},
"geometry": {
"type": "LineString",
"coordinates": [
[
11.579704,48.13603
]
,[
11.580697,48.135498
]
,[
11.581482,48.135502
]
,[
11.581609,48.135257
]
,[
11.580923,48.134895
]
,[
11.579905,48.134873
]
]
}
},

{"type": "Feature",
"properties":{
"time": 1473045614324,
"guid": "99d61020f86c4cfab763766bf22a1342.1c",
"title": "Munich city walls 08 / 24",
"description": "This section of the  wall was a nice area in former time. Part of this area was the only gate which was opened until late evening called 'Einlass' (entrance).Mission series starts at old city hall.",
"author":"eeepee",
"authorTeam": "R",
"ratingE6": 900000,
"medianCompletionTimeMs": 622084,
"numUniqueCompletedPlayers": 45,
"typeNumMission": 1,
"image": "https://lh3.googleusercontent.com/ZYZDxWjjZ-WcP_zs9rdq03j6tabaQWv0oZETM6CDMVvHKLrPk1VHhSDpHF_Vz8bVxj_1hUYIsBQjHJKDqR3H-A",
"portalTitle": ["Reich verzierte Eingangstür","MUC - Kunst im Heim","Madonna Im Erker","Sculpture of Ida Schumacher","Karl Valentin Sculpture","hmmm - feine Schmalznudeln"],
"portalTypeNum": [1,1,1,1,1,1],
"portalObjectiveNum": [1,1,1,1,1,1],
"id": 5
},
"geometry": {
"type": "LineString",
"coordinates": [
[
11.579187,48.134998
]
,[
11.578586,48.135088
]
,[
11.577288,48.135076
]
,[
11.576514,48.134955
]
,[
11.575528,48.135009
]
,[
11.574632,48.134885
]
]
}
},

{"type": "Feature",
"properties":{
"time": 1473045628051,
"guid": "f40fa0d96af8435e887b0c0792ee26c4.1c",
"title": "Munich city walls 09 / 24",
"description": "In later centuries the cattle market was located to this area. We will visit also the area of the south gate 'Angertor' which was closed after fortification.Mission series starts at old city hall.",
"author":"eeepee",
"authorTeam": "R",
"ratingE6": 902439,
"medianCompletionTimeMs": 567534,
"numUniqueCompletedPlayers": 45,
"typeNumMission": 1,
"image": "https://lh3.googleusercontent.com/hogf4jt5Zv5BOrrnKWWbSuuVdmAViijmXKg0-X-Ab8J9yMsbgzRpILWgWmSPEZkPafjoB54BEbWIz6RmUYwHAw",
"portalTitle": ["Eulenbrunnen","Luftschutzbunker An St.Jakobs Platz","Christophorus with Child","Kind mit Kirche","Marionettentheater","Türe des Münchner Feuerwehrmuseums"],
"portalTypeNum": [1,1,1,1,1,1],
"portalObjectiveNum": [1,1,1,1,1,1],
"id": 5
},
"geometry": {
"type": "LineString",
"coordinates": [
[
11.573483,48.134409
]
,[
11.573633,48.133832
]
,[
11.573302,48.133452
]
,[
11.572697,48.133112
]
,[
11.570334,48.132022
]
,[
11.56968,48.132527
]
]
}
},

{"type": "Feature",
"properties":{
"time": 1473045644450,
"guid": "58c231c301af4699b10044d0d72f631d.1c",
"title": "Munich city walls 10 / 24",
"description": "We will visit now the area around the southern main gate 'Sendlinger Tor',  the name is derived of a village named 'Sendling' lying southwest from here.Mission series starts at old city hall.",
"author":"eeepee",
"authorTeam": "R",
"ratingE6": 926829,
"medianCompletionTimeMs": 565579,
"numUniqueCompletedPlayers": 45,
"typeNumMission": 1,
"image": "https://lh3.googleusercontent.com/2-COjAZMxMKhbOkOR77PR7w_AA9uq_1JSbNKPXa_pygN1F8KgQ8VEgH6KPAQdzXO0rY08kzF8XDp2PC0w7wp",
"portalTitle": ["Kreissparkasse München Starnbe","AIDS Denkmal ","Kreuz am Sendlinger Tor ","Sendlinger Tor","Auffliegende Vögel","Spielplatz"],
"portalTypeNum": [1,1,1,1,1,1],
"portalObjectiveNum": [1,1,1,1,1,1],
"id": 5
},
"geometry": {
"type": "LineString",
"coordinates": [
[
11.567278,48.133413
]
,[
11.56748,48.133846
]
,[
11.567855,48.133866
]
,[
11.567604,48.134108
]
,[
11.567254,48.134534
]
,[
11.567122,48.134929
]
]
}
},

{"type": "Feature",
"properties":{
"time": 1473045653438,
"guid": "c80a6f57501b4468bd3f24e608ecc4ea.1c",
"title": "Munich city walls 11 / 24",
"description": "100 years after construction the second wall ring got an outer bailey for better defense. We will see some traces of this during this mission.Mission series starts at old city hall.",
"author":"eeepee",
"authorTeam": "R",
"ratingE6": 878049,
"medianCompletionTimeMs": 407077,
"numUniqueCompletedPlayers": 46,
"typeNumMission": 1,
"image": "https://lh3.googleusercontent.com/Q9xlfvP7_LAzum1y8ae35lTgfT3cVE-fOeHEfhhOQ8cKFU7TtP_um1zlDS4IPIEHLBuyBHIctJoFGUVWx9UK5A",
"portalTitle": ["Reiter","Gockel, Hinkel und Gackeleia","Erbaut Im Kriegsjahr 1915","Rabattsparverein","Kassen- und Steueramt","Skulptur Herzogspitalstr. 24"],
"portalTypeNum": [1,1,1,1,1,1],
"portalObjectiveNum": [1,1,1,1,1,1],
"id": 5
},
"geometry": {
"type": "LineString",
"coordinates": [
[
11.566899,48.13541
]
,[
11.566823,48.135643
]
,[
11.566955,48.135945
]
,[
11.566859,48.136275
]
,[
11.566681,48.136967
]
,[
11.566479,48.137958
]
]
}
},

{"type": "Feature",
"properties":{
"time": 1473045669106,
"guid": "c743f9fffa0d4177828bc61d484aa407.1c",
"title": "Munich city walls 12 / 24",
"description": "We explore now the area of the western gate 'Karlstor' or 'Neuhauser Tor' named after a village in the west or later after an bavarian duke.Mission series starts at old city hall.",
"author":"eeepee",
"authorTeam": "R",
"ratingE6": 925000,
"medianCompletionTimeMs": 397752,
"numUniqueCompletedPlayers": 46,
"typeNumMission": 1,
"image": "https://lh3.googleusercontent.com/H_lltYCOMyHiVqlYpAt6gmlH5HERurNxWoXBVEHpDRt1x1BD5jOSjCvPxGt_1V5XJVqaKmi2APLw-gzqlzC_",
"portalTitle": ["Brunnen vereist","Neuhausertor","Hofnarr Prangerl","Maria","Brücke","Steindruck München"],
"portalTypeNum": [1,1,1,1,1,1],
"portalObjectiveNum": [1,1,1,1,1,1],
"id": 5
},
"geometry": {
"type": "LineString",
"coordinates": [
[
11.567037,48.138972
]
,[
11.566778,48.138914
]
,[
11.566595,48.139155
]
,[
11.567221,48.139173
]
,[
11.56759,48.139506
]
,[
11.568212,48.140114
]
]
}
},

{"type": "Feature",
"properties":{
"time": 1473045672125,
"guid": "69e33f61c974471eacabeb6697f05a75.1c",
"title": "Munich City walls 13 /24",
"description": "We will visit now the area of the 'Maxburg' a residence of bavarian dukes. Nowadays only a tower survived.Mission series starts at old city hall.",
"author":"eeepee",
"authorTeam": "R",
"ratingE6": 928571,
"medianCompletionTimeMs": 405683,
"numUniqueCompletedPlayers": 46,
"typeNumMission": 1,
"image": "https://lh3.googleusercontent.com/r9ENx8vFxIJwZkEc8gah31BLkFmnh4VQN1pzPTPizX_jowPjfoZnK4vr5R00lY3d0HSjcyPvywUShVmmdF0",
"portalTitle": ["Künstler Haus bei Nacht","Schlafendes Eichhörnchen","Steinschwein","Max-Turm","Monarchium","Brunnen an der Goldschmiede"],
"portalTypeNum": [1,1,1,1,1,1],
"portalObjectiveNum": [1,1,1,1,1,1],
"id": 5
},
"geometry": {
"type": "LineString",
"coordinates": [
[
11.567852,48.140312
]
,[
11.56854,48.140609
]
,[
11.569222,48.140765
]
,[
11.569503,48.140681
]
,[
11.570643,48.140707
]
,[
11.571667,48.141224
]
]
}
},

{"type": "Feature",
"properties":{
"time": 1473045689625,
"guid": "e036032f30c44bb3af4c047aeee43ee6.1c",
"title": "Munich City walls 14 / 24",
"description": "We're following now the northwestern part of the second wall ring and will visit the last remains of the wall and the largest tower named 'Jungfernturm'.Mission series starts at old city hall.",
"author":"eeepee",
"authorTeam": "R",
"ratingE6": 902439,
"medianCompletionTimeMs": 428260,
"numUniqueCompletedPlayers": 45,
"typeNumMission": 1,
"image": "https://lh3.googleusercontent.com/zRGXyF5bXLmJA_cvtbf9nBcaIMOG98KbX64I8XBf4ZGKQgbUsM7z0vykRXD6HY3_Jxy5eHja4Rhp_eM51BDE",
"portalTitle": ["Pfau","Ancient Stone Wall","Max 17 Fresko ","Reste des Jungfernturms von 1493","Skulptur Amiraplatz","Bayerisches Staatsministerium Kultus Wissenschaft Und Kunst"],
"portalTypeNum": [1,1,1,1,1,1],
"portalObjectiveNum": [1,1,1,1,1,1],
"id": 5
},
"geometry": {
"type": "LineString",
"coordinates": [
[
11.571566,48.141522
]
,[
11.57128,48.141469
]
,[
11.572006,48.141731
]
,[
11.574318,48.142161
]
,[
11.575476,48.142376
]
,[
11.575426,48.142119
]
]
}
},

{"type": "Feature",
"properties":{
"time": 1473045692037,
"guid": "bb9724406c3f4fa7b1f505630bd32e84.1c",
"title": "Munich City walls 15 / 24",
"description": "At the end of this mission we will reach the famous Odeonsplatz, in former time the place of the northern gate 'Schwabinger Tor' (named after a village).Mission series starts at old city hall.",
"author":"eeepee",
"authorTeam": "R",
"ratingE6": 926829,
"medianCompletionTimeMs": 360920,
"numUniqueCompletedPlayers": 45,
"typeNumMission": 1,
"image": "https://lh3.googleusercontent.com/goNs0Q16OAp4coTFMAB1MHf-jR8ySios3CxQUGV20KmY1nZZZG0zjnHB6bflblAavpYtlfT5SFEnnltmTXzn",
"portalTitle": ["Eingang Literaturhaus München","Griechische Kirche Zum Erlöser","Sitting Guy","Theatiner Hof","'Weha 2' Bronzeguss","Feldherrnhalle"],
"portalTypeNum": [1,1,1,1,1,1],
"portalObjectiveNum": [1,1,1,1,1,1],
"id": 5
},
"geometry": {
"type": "LineString",
"coordinates": [
[
11.57505,48.141829
]
,[
11.574892,48.14142
]
,[
11.57636,48.141328
]
,[
11.576603,48.141206
]
,[
11.576789,48.141915
]
,[
11.577105,48.141708
]
]
}
},

{"type": "Feature",
"properties":{
"time": 1473045723995,
"guid": "00d3337d59f84c08b7650a37d7391487.1c",
"title": "Munich City walls 16 / 24",
"description": "We will now make a short visit to the 'Hofgarten' (court garden) which was lying outside the second wall ring near the  Munich palace named 'Residenz'.Mission series starts at old city hall.",
"author":"eeepee",
"authorTeam": "R",
"ratingE6": 875000,
"medianCompletionTimeMs": 828957,
"numUniqueCompletedPlayers": 43,
"typeNumMission": 1,
"image": "https://lh3.googleusercontent.com/NzvegsbdC5du97kXgpN2xbcfmyVU2vdCgsE77J2ovutLWRY_Jb5VQ4LBwiMppmVVKocEQzEeoV3kuup4D8A",
"portalTitle": ["Theatinerkirche","Hofgarten","Fountain of a Woman Thinking","Dianatempel im Hofgarten","Infotafel Englischer Garten - Südlicher Teil","Residenz München "],
"portalTypeNum": [1,1,1,1,1,1],
"portalObjectiveNum": [1,1,1,1,1,1],
"id": 5
},
"geometry": {
"type": "LineString",
"coordinates": [
[
11.577121,48.141991
]
,[
11.578185,48.142454
]
,[
11.578668,48.143194
]
,[
11.580019,48.142981
]
,[
11.581142,48.141836
]
,[
11.579525,48.141957
]
]
}
},

{"type": "Feature",
"properties":{
"time": 1473045732326,
"guid": "05f13991944347baac79762554752a15.1c",
"title": "Munich City walls 17 / 24",
"description": "This mission follows the part of the wall which divided the town and the imperial residence. The kings and dukes always wanted some distance to the town.Mission series starts at old city hall.",
"author":"eeepee",
"authorTeam": "R",
"ratingE6": 950000,
"medianCompletionTimeMs": 553486,
"numUniqueCompletedPlayers": 43,
"typeNumMission": 1,
"image": "https://lh3.googleusercontent.com/svyNWpKovsebPkf-QGRrhyyyoL94lv1cEWAXTYyF2Kd-M5kiGxj7RofHVAnFv_TvCb7JQ84E_r6oGcTINAg",
"portalTitle": ["Hofgarten, München","Löwe","Lion Odeonsplatz","Dramatic Mural Above Golfino ","Maximillianstrasse","Alte Post"],
"portalTypeNum": [1,1,1,1,1,1],
"portalObjectiveNum": [1,1,1,1,1,1],
"id": 5
},
"geometry": {
"type": "LineString",
"coordinates": [
[
11.578542,48.142322
]
,[
11.57772,48.141742
]
,[
11.577626,48.141269
]
,[
11.577356,48.140569
]
,[
11.577573,48.139545
]
,[
11.578259,48.139336
]
]
}
},

{"type": "Feature",
"properties":{
"time": 1473045832867,
"guid": "c00d344b94da4d4186d38045a9840cc6.1c",
"title": "Munich City walls 18 / 24",
"description": "We will  finish our trail along the second wall ring and you can terminate then. If you have some time you can do a third round exploring the fortress area.Mission series starts at old city hall.",
"author":"eeepee",
"authorTeam": "R",
"ratingE6": 925000,
"medianCompletionTimeMs": 747190,
"numUniqueCompletedPlayers": 43,
"typeNumMission": 1,
"image": "https://lh3.googleusercontent.com/uKglHkS1chtoG4BhhNQDgTQ6P7g4tZLcKjsiBJfJ-0SblWpE8ByDynNp-FNX4ODMEi13dySdcOR5YJCnXcnq",
"portalTitle": ["Maria","Rotkäppchen Brunnen","Kunstmühle","Hotel Mandarin Oriental","Alpha Beta Sigma","'Lueg ins Land' Watchtower","Isartor"],
"portalTypeNum": [1,1,1,1,1,1,1],
"portalObjectiveNum": [1,1,1,1,1,1,1],
"id": 5
},
"geometry": {
"type": "LineString",
"coordinates": [
[
11.580299,48.138456
]
,[
11.580943,48.138408
]
,[
11.581088,48.137736
]
,[
11.580834,48.137082
]
,[
11.581746,48.136096
]
,[
11.582388,48.135672
]
,[
11.581609,48.135257
]
]
}
},

{"type": "Feature",
"properties":{
"time": 1473045844931,
"guid": "0dfc9de7ff524eedbeb8dcc6f126a09b.1c",
"title": "Munich city walls 19 / 24",
"description": "Our Munich fortress tour starts with a visit to the former gate at the Isar river and follows then the places bastions and ravelins in the northeastern region.Mission series starts at old city hall.",
"author":"eeepee",
"authorTeam": "R",
"ratingE6": 833333,
"medianCompletionTimeMs": 1683049,
"numUniqueCompletedPlayers": 39,
"typeNumMission": 1,
"image": "https://lh3.googleusercontent.com/PT_6Q_TfDjHVrpj-B2NMmutRG0WiBiUKinW1dTU12HugukYPz37OMduavjojb92hJUhn8FGLeud78MmbhQsX",
"portalTitle": ["Maria mit Jesuskind","Patentamt","The Lady on Ludwigsbrücke","Steinfratze","Isartor Zweibrücken Passage","Stein Bus","Fortuna-Brunnen von 1907","Blue Tomato","Skulptur am Maxforum","Maximilianstraße/Regierung von Oberbayern"],
"portalTypeNum": [1,1,1,1,1,1,1,1,1,1],
"portalObjectiveNum": [1,1,1,1,1,1,1,1,1,1],
"id": 5
},
"geometry": {
"type": "LineString",
"coordinates": [
[
11.5831,48.133828
]
,[
11.583758,48.132709
]
,[
11.585017,48.132352
]
,[
11.584483,48.132676
]
,[
11.583106,48.13335
]
,[
11.583138,48.134377
]
,[
11.583272,48.134773
]
,[
11.583862,48.135701
]
,[
11.583692,48.136342
]
,[
11.584799,48.137944
]
]
}
},

{"type": "Feature",
"properties":{
"time": 1473045866534,
"guid": "06594aebca8e45e99a895fb29e18665a.1c",
"title": "Munich city walls 20 / 24",
"description": "This part of our tour visits the fortifications which protect the eastern part of the 'Residenz'.Mission series starts at old city hall.",
"author":"eeepee",
"authorTeam": "R",
"ratingE6": 833333,
"medianCompletionTimeMs": 1533115,
"numUniqueCompletedPlayers": 39,
"typeNumMission": 1,
"image": "https://lh3.googleusercontent.com/EwZtCcXgfgp_rUMWzN9WV6sZz6hftLg3HHEjDVIa-u0ZzuUVxjJlQGwsy7nIp1gfV7IZ4aJOoJVak2vJFdSsfg",
"portalTitle": ["Brunnen im Hof","Fassade Vier Jahreszeiten","Roter Löwe","Löwenparade 1 Sommer 2006","Halong Bay","Säule und Erker am Hauseck","Maria im Winkel","Christophorus-Skulptur","Fontäne am Prinz-Carl-Palais","Theodor Graf Morawitzky"],
"portalTypeNum": [1,1,1,1,1,1,1,1,1,1],
"portalObjectiveNum": [1,1,1,1,1,1,1,1,1,1],
"id": 5
},
"geometry": {
"type": "LineString",
"coordinates": [
[
11.583018,48.138473
]
,[
11.58162,48.138889
]
,[
11.58276,48.140355
]
,[
11.582615,48.140891
]
,[
11.584671,48.14122
]
,[
11.585962,48.141605
]
,[
11.586025,48.1422
]
,[
11.585993,48.143405
]
,[
11.583851,48.144022
]
,[
11.583015,48.14339
]
]
}
},

{"type": "Feature",
"properties":{
"time": 1473045893139,
"guid": "4eae11cce31f4f2ba1b095b1aa9eee7e.1c",
"title": "Munich city walls 21 / 24",
"description": "We will now visit a some remnants of the norther bastion and explore afterwards the area which protected the northern gate 'Schwabinger Tor'.Mission series starts at old city hall.",
"author":"eeepee",
"authorTeam": "R",
"ratingE6": 942857,
"medianCompletionTimeMs": 1285772,
"numUniqueCompletedPlayers": 38,
"typeNumMission": 1,
"image": "https://lh3.googleusercontent.com/f2TBR0YXAlUzSi1We3SAiipPc3YeXxk40y3uK9b2Fl4-GH5h5-3-0yfh1mS3m9AFweNgdY7FzezXZk0QsJMkeQ",
"portalTitle": ["Plumpsklo on a Statue ","Heinrich Heine","München, Fjodor-Iwanowitsch-Tj","Monument of Confucius in a Par","Monument of Frédéric Chopin in","Bayern Minister ","Bayerisches Sozialgericht","Haus der Bayrischen Landkreise","Monument of Maximilian","Almeida-Palais 1823  "],
"portalTypeNum": [1,1,1,1,1,1,1,1,1,1],
"portalObjectiveNum": [1,1,1,1,1,1,1,1,1,1],
"id": 5
},
"geometry": {
"type": "LineString",
"coordinates": [
[
11.582389,48.143533
]
,[
11.581213,48.144098
]
,[
11.580818,48.143894
]
,[
11.580594,48.144045
]
,[
11.580286,48.144161
]
,[
11.578784,48.144686
]
,[
11.578611,48.145555
]
,[
11.577394,48.145217
]
,[
11.576105,48.143341
]
,[
11.573987,48.143438
]
]
}
},

{"type": "Feature",
"properties":{
"time": 1473045911226,
"guid": "23206321fcee486da9fe51089cdebf13.1c",
"title": "Munich city walls 22 / 24",
"description": "We will visit know the northwestern ravelins and bastions which protected the area between 'Schwabinger Tor' and 'Karlstor'.Mission series starts at old city hall.",
"author":"eeepee",
"authorTeam": "R",
"ratingE6": 942857,
"medianCompletionTimeMs": 890424,
"numUniqueCompletedPlayers": 38,
"typeNumMission": 1,
"image": "https://lh3.googleusercontent.com/JA5LhKDmfq6ZDadCyupnHMf8WiqWYopoCWOIg-nReK413glNy6PaWcwCwvPqummMx6M00gYQEDiDemPM2aEUSg",
"portalTitle": ["Fackel am Platz der Opfer","Schöpfer dieser Anlage","Justus Liebig Statue","Pettenkofer Statue","Wittelsbacherbrunnen","Credit Suisse","Venezianischer Löwe","Alte Börse München","Alter Botanischer Garten","Justiz Palast"],
"portalTypeNum": [1,1,1,1,1,1,1,1,1,1],
"portalObjectiveNum": [1,1,1,1,1,1,1,1,1,1],
"id": 5
},
"geometry": {
"type": "LineString",
"coordinates": [
[
11.573927,48.143113
]
,[
11.572658,48.142428
]
,[
11.571465,48.142036
]
,[
11.570846,48.141833
]
,[
11.569307,48.141287
]
,[
11.568647,48.141325
]
,[
11.568295,48.141127
]
,[
11.56757,48.140693
]
,[
11.566208,48.14072
]
,[
11.565493,48.140194
]
]
}
},

{"type": "Feature",
"properties":{
"time": 1473045960653,
"guid": "53c96a78de8f49a3892b20a721d8d14e.1c",
"title": "Munich city walls 23 / 24",
"description": "This part of our trail through the fortification area covers the western and southern part between 'Karlstor' 'Sendlinger Tor' and the former 'Angertor'.  Mission series starts at old city hall.",
"author":"eeepee",
"authorTeam": "R",
"ratingE6": 852941,
"medianCompletionTimeMs": 2526262,
"numUniqueCompletedPlayers": 38,
"typeNumMission": 1,
"image": "https://lh3.googleusercontent.com/cMm0RmppACXOYIKgZ4Vp7RmUMjNcJEYIbvKcXQammYb6dFzcJVU6q1kjNo33ipUkY1mIq4jExqS4db8sZWGIog",
"portalTitle": ["Stachus Bahnstation","Die Prophetin","Alte Post","Fountain","Ornamentik","Mouse in the House","The Bishop","Holy Maria Statue","Krasses Schnabelvieh","Franz Stelzhamers Haus"],
"portalTypeNum": [1,1,1,1,1,1,1,1,1,1],
"portalObjectiveNum": [1,1,1,1,1,1,1,1,1,1],
"id": 5
},
"geometry": {
"type": "LineString",
"coordinates": [
[
11.565098,48.138806
]
,[
11.564735,48.13588
]
,[
11.565103,48.135093
]
,[
11.565863,48.133503
]
,[
11.567267,48.132393
]
,[
11.567355,48.131629
]
,[
11.568946,48.131302
]
,[
11.569548,48.131114
]
,[
11.57022,48.131679
]
,[
11.572225,48.131755
]
]
}
},

{"type": "Feature",
"properties":{
"time": 1473045984904,
"guid": "9edb95a7315447a49bfeb88b06ddc1d5.1c",
"title": "Munich city walls 24 / 24",
"description": "Now we are on our last part visiting ravelins and bastions and we will complete our third round. If you want a summary of all portal texts then contact me.Mission series starts at old city hall.",
"author":"eeepee",
"authorTeam": "R",
"ratingE6": 897436,
"medianCompletionTimeMs": 828860,
"numUniqueCompletedPlayers": 41,
"typeNumMission": 1,
"image": "https://lh3.googleusercontent.com/Zcos4SZF8ZO0D4LfDe7mPa7C86GCRcTmyKUcUB1kUHaC2sRS7CwVuTVQW-oooW1s8k6nphahVzdvj_LKV2zw",
"portalTitle": ["Hard Working Persons","Glockenbachwerkstatt Graffiti","Teamtheater München ","Milka-kuh","Madonna An Der Ecke ","Viktualienmarkt","Frauenstrasse Saint","Isartor"],
"portalTypeNum": [1,1,1,1,1,1,1,1],
"portalObjectiveNum": [1,1,1,1,1,1,1,1],
"id": 5
},
"geometry": {
"type": "LineString",
"coordinates": [
[
11.572889,48.132234
]
,[
11.573981,48.133019
]
,[
11.574651,48.133514
]
,[
11.574472,48.134141
]
,[
11.576485,48.134208
]
,[
11.577195,48.134505
]
,[
11.578451,48.134536
]
,[
11.581929,48.134991
]
]
}
}]}