{"type": "FeatureCollection","features": [{"type": "Feature","properties": {"mission":1},"geometry":{"type": "Point","coordinates":[
11.437851,48.262847
]
}},{"type": "Feature","properties": {"mission":2},"geometry":{"type": "Point","coordinates":[
11.436101,48.260319
]
}},{"type": "Feature","properties": {"mission":3},"geometry":{"type": "Point","coordinates":[
11.434559,48.25942
]
}},{"type": "Feature","properties": {"mission":4},"geometry":{"type": "Point","coordinates":[
11.434545,48.260064
]
}},{"type": "Feature","properties": {"mission":5},"geometry":{"type": "Point","coordinates":[
11.432677,48.260189
]
}},{"type": "Feature","properties": {"mission":6},"geometry":{"type": "Point","coordinates":[
11.432257,48.261034
]
}},{"type": "Feature","properties": {"mission":7},"geometry":{"type": "Point","coordinates":[
11.437851,48.262847
]
}},{"type": "Feature","properties": {"mission":8},"geometry":{"type": "Point","coordinates":[
11.436101,48.260319
]
}},{"type": "Feature","properties": {"mission":9},"geometry":{"type": "Point","coordinates":[
11.434559,48.25942
]
}},{"type": "Feature","properties": {"mission":10},"geometry":{"type": "Point","coordinates":[
11.434545,48.260064
]
}},{"type": "Feature","properties": {"mission":11},"geometry":{"type": "Point","coordinates":[
11.432677,48.260189
]
}},{"type": "Feature","properties": {"mission":12},"geometry":{"type": "Point","coordinates":[
11.432257,48.261034
]
}}]}